EESchema Schematic File Version 4
EELAYER 30 0
EELAYER END
$Descr A4 11693 8268
encoding utf-8
Sheet 1 1
Title ""
Date ""
Rev ""
Comp ""
Comment1 ""
Comment2 ""
Comment3 ""
Comment4 ""
$EndDescr
$Comp
L Transistor_BJT:BC337 Q3
U 1 1 5EF4E0AB
P 8400 4700
F 0 "Q3" H 8591 4746 50  0000 L CNN
F 1 "BC337" H 8591 4655 50  0000 L CNN
F 2 "Package_TO_SOT_THT:TO-92L_Wide" H 8600 4625 50  0001 L CIN
F 3 "https://diotec.com/tl_files/diotec/files/pdf/datasheets/bc337.pdf" H 8400 4700 50  0001 L CNN
	1    8400 4700
	1    0    0    -1  
$EndComp
$Comp
L Transistor_BJT:BC327 Q1
U 1 1 5EF4EEF3
P 8400 2100
F 0 "Q1" H 8591 2146 50  0000 L CNN
F 1 "BC327" H 8591 2055 50  0000 L CNN
F 2 "Package_TO_SOT_THT:TO-92L_Wide" H 8600 2025 50  0001 L CIN
F 3 "http://www.onsemi.com/pub_link/Collateral/BC327-D.PDF" H 8400 2100 50  0001 L CNN
	1    8400 2100
	1    0    0    1   
$EndComp
$Comp
L Diode:1N4148 D1
U 1 1 5EF4FFA4
P 3350 2150
F 0 "D1" H 3350 2367 50  0000 C CNN
F 1 "1N4148" H 3350 2276 50  0000 C CNN
F 2 "Diode_THT:D_DO-35_SOD27_P7.62mm_Horizontal" H 3350 1975 50  0001 C CNN
F 3 "https://assets.nexperia.com/documents/data-sheet/1N4148_1N4448.pdf" H 3350 2150 50  0001 C CNN
	1    3350 2150
	0    -1   -1   0   
$EndComp
$Comp
L Connector:Conn_01x04_Male J1
U 1 1 5EF56EEA
P 2450 3200
F 0 "J1" H 2558 3481 50  0000 C CNN
F 1 "LDR_and_Level" H 2558 3390 50  0000 C CNN
F 2 "Connector_PinHeader_2.54mm:PinHeader_1x04_P2.54mm_Vertical" H 2450 3200 50  0001 C CNN
F 3 "~" H 2450 3200 50  0001 C CNN
	1    2450 3200
	0    -1   1    0   
$EndComp
$Comp
L Connector:Conn_01x04_Male J2
U 1 1 5EF70322
P 10200 4250
F 0 "J2" H 10308 4531 50  0000 C CNN
F 1 "LED's" H 10308 4440 50  0000 C CNN
F 2 "Connector_PinHeader_2.54mm:PinHeader_1x04_P2.54mm_Vertical" H 10200 4250 50  0001 C CNN
F 3 "~" H 10200 4250 50  0001 C CNN
	1    10200 4250
	-1   0    0    -1  
$EndComp
$Comp
L MCU_Microchip_ATmega:ATmega328P-PU U1
U 1 1 5EF74093
P 5600 2950
F 0 "U1" H 4956 2996 50  0000 R CNN
F 1 "ATmega328P-PU" H 4956 2905 50  0000 R CNN
F 2 "Package_DIP:DIP-28_W7.62mm" H 5600 2950 50  0001 C CIN
F 3 "http://ww1.microchip.com/downloads/en/DeviceDoc/ATmega328_P%20AVR%20MCU%20with%20picoPower%20Technology%20Data%20Sheet%2040001984A.pdf" H 5600 2950 50  0001 C CNN
	1    5600 2950
	1    0    0    -1  
$EndComp
$Comp
L Connector:Conn_01x02_Male J3
U 1 1 5EF6796B
P 2100 1450
F 0 "J3" H 2208 1631 50  0000 C CNN
F 1 "Power" H 2208 1540 50  0000 C CNN
F 2 "Connector_PinHeader_2.54mm:PinHeader_1x02_P2.54mm_Vertical" H 2100 1450 50  0001 C CNN
F 3 "~" H 2100 1450 50  0001 C CNN
	1    2100 1450
	1    0    0    -1  
$EndComp
$Comp
L Device:R R1
U 1 1 5EF6893D
P 9050 3750
F 0 "R1" H 9120 3796 50  0000 L CNN
F 1 "150" H 9120 3705 50  0000 L CNN
F 2 "Resistor_THT:R_Axial_DIN0207_L6.3mm_D2.5mm_P10.16mm_Horizontal" V 8980 3750 50  0001 C CNN
F 3 "~" H 9050 3750 50  0001 C CNN
	1    9050 3750
	1    0    0    -1  
$EndComp
$Comp
L Device:R R10
U 1 1 5EF6F6E0
P 9550 3750
F 0 "R10" H 9620 3796 50  0000 L CNN
F 1 "150" H 9620 3705 50  0000 L CNN
F 2 "Resistor_THT:R_Axial_DIN0207_L6.3mm_D2.5mm_P10.16mm_Horizontal" V 9480 3750 50  0001 C CNN
F 3 "~" H 9550 3750 50  0001 C CNN
	1    9550 3750
	1    0    0    -1  
$EndComp
$Comp
L Device:R R4
U 1 1 5EF6F9F7
P 3350 1700
F 0 "R4" H 3420 1746 50  0000 L CNN
F 1 "100k" H 3420 1655 50  0000 L CNN
F 2 "Resistor_THT:R_Axial_DIN0207_L6.3mm_D2.5mm_P10.16mm_Horizontal" V 3280 1700 50  0001 C CNN
F 3 "~" H 3350 1700 50  0001 C CNN
	1    3350 1700
	1    0    0    -1  
$EndComp
$Comp
L Device:R R3
U 1 1 5EF7006D
P 2850 4050
F 0 "R3" H 2920 4096 50  0000 L CNN
F 1 "2k2" H 2920 4005 50  0000 L CNN
F 2 "Resistor_THT:R_Axial_DIN0207_L6.3mm_D2.5mm_P10.16mm_Horizontal" V 2780 4050 50  0001 C CNN
F 3 "~" H 2850 4050 50  0001 C CNN
	1    2850 4050
	1    0    0    -1  
$EndComp
$Comp
L Device:R R7
U 1 1 5EF7073F
P 7750 3150
F 0 "R7" V 7543 3150 50  0000 C CNN
F 1 "10k" V 7634 3150 50  0000 C CNN
F 2 "Resistor_THT:R_Axial_DIN0207_L6.3mm_D2.5mm_P10.16mm_Horizontal" V 7680 3150 50  0001 C CNN
F 3 "~" H 7750 3150 50  0001 C CNN
	1    7750 3150
	0    1    1    0   
$EndComp
$Comp
L Device:R R6
U 1 1 5EF70D7F
P 7750 2600
F 0 "R6" V 7543 2600 50  0000 C CNN
F 1 "10k" V 7634 2600 50  0000 C CNN
F 2 "Resistor_THT:R_Axial_DIN0207_L6.3mm_D2.5mm_P10.16mm_Horizontal" V 7680 2600 50  0001 C CNN
F 3 "~" H 7750 2600 50  0001 C CNN
	1    7750 2600
	0    1    1    0   
$EndComp
$Comp
L Device:R R5
U 1 1 5EF71394
P 7750 2100
F 0 "R5" V 7543 2100 50  0000 C CNN
F 1 "10k" V 7634 2100 50  0000 C CNN
F 2 "Resistor_THT:R_Axial_DIN0207_L6.3mm_D2.5mm_P10.16mm_Horizontal" V 7680 2100 50  0001 C CNN
F 3 "~" H 7750 2100 50  0001 C CNN
	1    7750 2100
	0    1    1    0   
$EndComp
$Comp
L Device:R R8
U 1 1 5EF716A9
P 7850 4700
F 0 "R8" V 7643 4700 50  0000 C CNN
F 1 "10k" V 7734 4700 50  0000 C CNN
F 2 "Resistor_THT:R_Axial_DIN0207_L6.3mm_D2.5mm_P10.16mm_Horizontal" V 7780 4700 50  0001 C CNN
F 3 "~" H 7850 4700 50  0001 C CNN
	1    7850 4700
	0    1    1    0   
$EndComp
$Comp
L Device:R R2
U 1 1 5EF719F4
P 2450 4250
F 0 "R2" H 2520 4296 50  0000 L CNN
F 1 "100k" H 2520 4205 50  0000 L CNN
F 2 "Resistor_THT:R_Axial_DIN0207_L6.3mm_D2.5mm_P10.16mm_Horizontal" V 2380 4250 50  0001 C CNN
F 3 "~" H 2450 4250 50  0001 C CNN
	1    2450 4250
	1    0    0    -1  
$EndComp
$Comp
L Device:CP C1
U 1 1 5EF7439A
P 2750 1700
F 0 "C1" H 2868 1746 50  0000 L CNN
F 1 "100u" H 2868 1655 50  0000 L CNN
F 2 "Capacitor_THT:CP_Radial_D8.0mm_P2.50mm" H 2788 1550 50  0001 C CNN
F 3 "~" H 2750 1700 50  0001 C CNN
	1    2750 1700
	1    0    0    -1  
$EndComp
Wire Wire Line
	8500 1900 8500 1650
Wire Wire Line
	9550 2950 9550 1650
Wire Wire Line
	9550 3350 9550 3600
Wire Wire Line
	8500 3600 8500 2300
$Comp
L Device:R R9
U 1 1 5EF69EF5
P 8500 3750
F 0 "R9" H 8570 3796 50  0000 L CNN
F 1 "150" H 8570 3705 50  0000 L CNN
F 2 "Resistor_THT:R_Axial_DIN0207_L6.3mm_D2.5mm_P10.16mm_Horizontal" V 8430 3750 50  0001 C CNN
F 3 "~" H 8500 3750 50  0001 C CNN
	1    8500 3750
	1    0    0    -1  
$EndComp
$Comp
L Transistor_BJT:BC327 Q2
U 1 1 5EF4E5C9
P 8950 2600
F 0 "Q2" H 9141 2646 50  0000 L CNN
F 1 "BC327" H 9141 2555 50  0000 L CNN
F 2 "Package_TO_SOT_THT:TO-92L_Wide" H 9150 2525 50  0001 L CIN
F 3 "http://www.onsemi.com/pub_link/Collateral/BC327-D.PDF" H 8950 2600 50  0001 L CNN
	1    8950 2600
	1    0    0    1   
$EndComp
Wire Wire Line
	9050 2800 9050 3600
Wire Wire Line
	8500 1650 9050 1650
Wire Wire Line
	9050 2400 9050 1650
Connection ~ 9050 1650
Wire Wire Line
	9050 1650 9550 1650
$Comp
L Transistor_BJT:BC327 Q4
U 1 1 5EF4F534
P 9450 3150
F 0 "Q4" H 9641 3196 50  0000 L CNN
F 1 "BC327" H 9641 3105 50  0000 L CNN
F 2 "Package_TO_SOT_THT:TO-92L_Wide" H 9650 3075 50  0001 L CIN
F 3 "http://www.onsemi.com/pub_link/Collateral/BC327-D.PDF" H 9450 3150 50  0001 L CNN
	1    9450 3150
	1    0    0    1   
$EndComp
$Comp
L power:GND #PWR0101
U 1 1 5EFE8CF7
P 8500 5100
F 0 "#PWR0101" H 8500 4850 50  0001 C CNN
F 1 "GND" H 8505 4927 50  0000 C CNN
F 2 "" H 8500 5100 50  0001 C CNN
F 3 "" H 8500 5100 50  0001 C CNN
	1    8500 5100
	1    0    0    -1  
$EndComp
Wire Wire Line
	9550 3900 9550 4150
Wire Wire Line
	9550 4150 10000 4150
Wire Wire Line
	9050 3900 9050 4250
Wire Wire Line
	9050 4250 10000 4250
Wire Wire Line
	8500 3900 8500 4350
Wire Wire Line
	8500 4350 10000 4350
Wire Wire Line
	8500 4500 8500 4450
Wire Wire Line
	8500 4450 10000 4450
Wire Wire Line
	8500 5100 8500 4900
Wire Wire Line
	7350 4050 7350 3150
Wire Wire Line
	7250 2600 7250 3950
Wire Wire Line
	7150 2100 7150 3750
Wire Wire Line
	2300 1450 2750 1450
$Comp
L power:GND #PWR0102
U 1 1 5F0267F1
P 2300 1750
F 0 "#PWR0102" H 2300 1500 50  0001 C CNN
F 1 "GND" H 2305 1577 50  0000 C CNN
F 2 "" H 2300 1750 50  0001 C CNN
F 3 "" H 2300 1750 50  0001 C CNN
	1    2300 1750
	1    0    0    -1  
$EndComp
Wire Wire Line
	2300 1550 2300 1750
$Comp
L power:GND #PWR0103
U 1 1 5F029A55
P 5600 4650
F 0 "#PWR0103" H 5600 4400 50  0001 C CNN
F 1 "GND" H 5605 4477 50  0000 C CNN
F 2 "" H 5600 4650 50  0001 C CNN
F 3 "" H 5600 4650 50  0001 C CNN
	1    5600 4650
	1    0    0    -1  
$EndComp
$Comp
L power:+3V8 #PWR0104
U 1 1 5F02B052
P 2750 1100
F 0 "#PWR0104" H 2750 950 50  0001 C CNN
F 1 "+3V8" H 2765 1273 50  0000 C CNN
F 2 "" H 2750 1100 50  0001 C CNN
F 3 "" H 2750 1100 50  0001 C CNN
	1    2750 1100
	1    0    0    -1  
$EndComp
Wire Wire Line
	2750 1450 2750 1550
Wire Wire Line
	2750 1100 2750 1450
Connection ~ 2750 1450
$Comp
L power:+3V8 #PWR0105
U 1 1 5F030476
P 5600 1250
F 0 "#PWR0105" H 5600 1100 50  0001 C CNN
F 1 "+3V8" H 5615 1423 50  0000 C CNN
F 2 "" H 5600 1250 50  0001 C CNN
F 3 "" H 5600 1250 50  0001 C CNN
	1    5600 1250
	1    0    0    -1  
$EndComp
$Comp
L power:GND #PWR0106
U 1 1 5F0367B4
P 2750 2050
F 0 "#PWR0106" H 2750 1800 50  0001 C CNN
F 1 "GND" H 2755 1877 50  0000 C CNN
F 2 "" H 2750 2050 50  0001 C CNN
F 3 "" H 2750 2050 50  0001 C CNN
	1    2750 2050
	1    0    0    -1  
$EndComp
Wire Wire Line
	2750 2050 2750 1850
$Comp
L power:GND #PWR0107
U 1 1 5F0500C2
P 2450 4550
F 0 "#PWR0107" H 2450 4300 50  0001 C CNN
F 1 "GND" H 2455 4377 50  0000 C CNN
F 2 "" H 2450 4550 50  0001 C CNN
F 3 "" H 2450 4550 50  0001 C CNN
	1    2450 4550
	1    0    0    -1  
$EndComp
Text GLabel 6450 3650 2    50   Input ~ 0
LDR
Text GLabel 2350 3800 0    50   Input ~ 0
LDR
Wire Wire Line
	2450 3400 2450 3800
Wire Wire Line
	2350 3800 2450 3800
Connection ~ 2450 3800
Wire Wire Line
	2450 3800 2450 4100
Wire Wire Line
	2450 4550 2450 4400
Text GLabel 6450 4150 2    50   Input ~ 0
LevelEnable
Text GLabel 2750 3550 2    50   Input ~ 0
LevelEnable
Wire Wire Line
	7150 2100 7600 2100
Wire Wire Line
	7900 2100 8200 2100
Wire Wire Line
	7900 2600 8750 2600
Wire Wire Line
	7600 2600 7250 2600
Wire Wire Line
	7350 3150 7600 3150
Wire Wire Line
	7900 3150 9250 3150
Wire Wire Line
	2750 1450 3350 1450
Wire Wire Line
	3350 1450 3350 1550
Wire Wire Line
	3350 1850 3350 1950
$Comp
L power:GND #PWR0108
U 1 1 5F0ABA6E
P 3350 2450
F 0 "#PWR0108" H 3350 2200 50  0001 C CNN
F 1 "GND" H 3355 2277 50  0000 C CNN
F 2 "" H 3350 2450 50  0001 C CNN
F 3 "" H 3350 2450 50  0001 C CNN
	1    3350 2450
	1    0    0    -1  
$EndComp
Wire Wire Line
	3350 2300 3350 2450
Text GLabel 3650 1950 2    50   Input ~ 0
VoltageSensor
Wire Wire Line
	3650 1950 3350 1950
Connection ~ 3350 1950
Wire Wire Line
	3350 1950 3350 2000
Text GLabel 3000 3750 2    50   Input ~ 0
Level
Wire Wire Line
	2650 3400 2650 3550
Wire Wire Line
	2650 3550 2750 3550
Wire Wire Line
	3000 3750 2850 3750
Wire Wire Line
	2850 3750 2850 3900
Wire Wire Line
	2550 3400 2550 3750
Wire Wire Line
	2550 3750 2850 3750
Connection ~ 2850 3750
$Comp
L power:GND #PWR0109
U 1 1 5F0D2F0A
P 2850 4350
F 0 "#PWR0109" H 2850 4100 50  0001 C CNN
F 1 "GND" H 2855 4177 50  0000 C CNN
F 2 "" H 2850 4350 50  0001 C CNN
F 3 "" H 2850 4350 50  0001 C CNN
	1    2850 4350
	1    0    0    -1  
$EndComp
Wire Wire Line
	2850 4350 2850 4200
$Comp
L power:+3V8 #PWR0110
U 1 1 5F0D4BA4
P 2000 3350
F 0 "#PWR0110" H 2000 3200 50  0001 C CNN
F 1 "+3V8" H 2015 3523 50  0000 C CNN
F 2 "" H 2000 3350 50  0001 C CNN
F 3 "" H 2000 3350 50  0001 C CNN
	1    2000 3350
	1    0    0    -1  
$EndComp
Wire Wire Line
	2000 3350 2000 3550
Wire Wire Line
	2000 3550 2350 3550
Wire Wire Line
	2350 3550 2350 3400
Text GLabel 6450 2850 2    50   Input ~ 0
VoltageSensor
Text GLabel 6450 2650 2    50   Input ~ 0
Level
Wire Wire Line
	7450 3850 7450 4700
Wire Wire Line
	7450 4700 7700 4700
Wire Wire Line
	8000 4700 8200 4700
Wire Wire Line
	5600 4650 5600 4450
Wire Wire Line
	5600 1250 5600 1350
Wire Wire Line
	5700 1450 5700 1350
Wire Wire Line
	5700 1350 5600 1350
Connection ~ 5600 1350
Wire Wire Line
	5600 1350 5600 1450
Wire Wire Line
	6450 2650 6200 2650
Wire Wire Line
	6450 2850 6200 2850
Wire Wire Line
	6450 4150 6200 4150
Wire Wire Line
	6450 3650 6200 3650
Wire Wire Line
	7150 3750 6200 3750
Wire Wire Line
	7250 3950 6200 3950
Wire Wire Line
	7350 4050 6200 4050
Wire Wire Line
	7450 3850 6200 3850
$Comp
L power:+3V8 #PWR0111
U 1 1 5F1365D3
P 9050 1500
F 0 "#PWR0111" H 9050 1350 50  0001 C CNN
F 1 "+3V8" H 9065 1673 50  0000 C CNN
F 2 "" H 9050 1500 50  0001 C CNN
F 3 "" H 9050 1500 50  0001 C CNN
	1    9050 1500
	1    0    0    -1  
$EndComp
Wire Wire Line
	9050 1500 9050 1650
$EndSCHEMATC
