(kicad_pcb (version 20171130) (host pcbnew 5.1.6-1.fc32)

  (general
    (thickness 1.6)
    (drawings 7)
    (tracks 105)
    (zones 0)
    (modules 20)
    (nets 38)
  )

  (page A4)
  (layers
    (0 F.Cu signal)
    (31 B.Cu signal)
    (32 B.Adhes user)
    (33 F.Adhes user)
    (34 B.Paste user)
    (35 F.Paste user)
    (36 B.SilkS user)
    (37 F.SilkS user)
    (38 B.Mask user)
    (39 F.Mask user)
    (40 Dwgs.User user)
    (41 Cmts.User user)
    (42 Eco1.User user)
    (43 Eco2.User user)
    (44 Edge.Cuts user)
    (45 Margin user)
    (46 B.CrtYd user)
    (47 F.CrtYd user)
    (48 B.Fab user)
    (49 F.Fab user)
  )

  (setup
    (last_trace_width 2)
    (user_trace_width 0.8)
    (user_trace_width 1.2)
    (user_trace_width 1.8)
    (user_trace_width 2)
    (trace_clearance 0.2)
    (zone_clearance 0.1)
    (zone_45_only no)
    (trace_min 0.2)
    (via_size 0.8)
    (via_drill 0.4)
    (via_min_size 0.4)
    (via_min_drill 0.3)
    (user_via 2 0.8)
    (uvia_size 0.3)
    (uvia_drill 0.1)
    (uvias_allowed no)
    (uvia_min_size 0.2)
    (uvia_min_drill 0.1)
    (edge_width 0.05)
    (segment_width 0.2)
    (pcb_text_width 0.3)
    (pcb_text_size 1.5 1.5)
    (mod_edge_width 0.12)
    (mod_text_size 1 1)
    (mod_text_width 0.15)
    (pad_size 1.8 1.8)
    (pad_drill 0.8)
    (pad_to_mask_clearance 0.05)
    (aux_axis_origin 123.19 59.69)
    (visible_elements FFFFFF7F)
    (pcbplotparams
      (layerselection 0x01000_fffffffe)
      (usegerberextensions false)
      (usegerberattributes false)
      (usegerberadvancedattributes false)
      (creategerberjobfile false)
      (excludeedgelayer true)
      (linewidth 0.100000)
      (plotframeref false)
      (viasonmask false)
      (mode 1)
      (useauxorigin true)
      (hpglpennumber 1)
      (hpglpenspeed 20)
      (hpglpendiameter 15.000000)
      (psnegative false)
      (psa4output false)
      (plotreference false)
      (plotvalue false)
      (plotinvisibletext false)
      (padsonsilk true)
      (subtractmaskfromsilk false)
      (outputformat 1)
      (mirror false)
      (drillshape 0)
      (scaleselection 1)
      (outputdirectory "plot/"))
  )

  (net 0 "")
  (net 1 "Net-(J2-Pad4)")
  (net 2 "Net-(J2-Pad3)")
  (net 3 "Net-(J2-Pad2)")
  (net 4 "Net-(J2-Pad1)")
  (net 5 "Net-(Q1-Pad1)")
  (net 6 "Net-(Q1-Pad2)")
  (net 7 "Net-(Q2-Pad1)")
  (net 8 "Net-(Q2-Pad2)")
  (net 9 "Net-(Q3-Pad2)")
  (net 10 "Net-(Q4-Pad1)")
  (net 11 "Net-(Q4-Pad2)")
  (net 12 "Net-(U1-Pad28)")
  (net 13 "Net-(U1-Pad14)")
  (net 14 "Net-(U1-Pad27)")
  (net 15 "Net-(U1-Pad26)")
  (net 16 "Net-(U1-Pad24)")
  (net 17 "Net-(U1-Pad10)")
  (net 18 "Net-(U1-Pad9)")
  (net 19 "Net-(U1-Pad21)")
  (net 20 "Net-(U1-Pad19)")
  (net 21 "Net-(U1-Pad18)")
  (net 22 "Net-(U1-Pad17)")
  (net 23 "Net-(U1-Pad3)")
  (net 24 "Net-(U1-Pad16)")
  (net 25 "Net-(U1-Pad2)")
  (net 26 "Net-(U1-Pad15)")
  (net 27 "Net-(U1-Pad1)")
  (net 28 VoltageSensor)
  (net 29 GND)
  (net 30 LevelEnable)
  (net 31 Level)
  (net 32 LDR)
  (net 33 +3V8)
  (net 34 "Net-(R5-Pad2)")
  (net 35 "Net-(R6-Pad2)")
  (net 36 "Net-(R7-Pad2)")
  (net 37 "Net-(R8-Pad2)")

  (net_class Default "This is the default net class."
    (clearance 0.2)
    (trace_width 0.25)
    (via_dia 0.8)
    (via_drill 0.4)
    (uvia_dia 0.3)
    (uvia_drill 0.1)
    (add_net +3V8)
    (add_net GND)
    (add_net LDR)
    (add_net Level)
    (add_net LevelEnable)
    (add_net "Net-(J2-Pad1)")
    (add_net "Net-(J2-Pad2)")
    (add_net "Net-(J2-Pad3)")
    (add_net "Net-(J2-Pad4)")
    (add_net "Net-(Q1-Pad1)")
    (add_net "Net-(Q1-Pad2)")
    (add_net "Net-(Q2-Pad1)")
    (add_net "Net-(Q2-Pad2)")
    (add_net "Net-(Q3-Pad2)")
    (add_net "Net-(Q4-Pad1)")
    (add_net "Net-(Q4-Pad2)")
    (add_net "Net-(R5-Pad2)")
    (add_net "Net-(R6-Pad2)")
    (add_net "Net-(R7-Pad2)")
    (add_net "Net-(R8-Pad2)")
    (add_net "Net-(U1-Pad1)")
    (add_net "Net-(U1-Pad10)")
    (add_net "Net-(U1-Pad14)")
    (add_net "Net-(U1-Pad15)")
    (add_net "Net-(U1-Pad16)")
    (add_net "Net-(U1-Pad17)")
    (add_net "Net-(U1-Pad18)")
    (add_net "Net-(U1-Pad19)")
    (add_net "Net-(U1-Pad2)")
    (add_net "Net-(U1-Pad21)")
    (add_net "Net-(U1-Pad24)")
    (add_net "Net-(U1-Pad26)")
    (add_net "Net-(U1-Pad27)")
    (add_net "Net-(U1-Pad28)")
    (add_net "Net-(U1-Pad3)")
    (add_net "Net-(U1-Pad9)")
    (add_net VoltageSensor)
  )

  (module Package_TO_SOT_THT:TO-92L_Wide (layer F.Cu) (tedit 5EF8969E) (tstamp 5EF81C95)
    (at 118.11 67.31 90)
    (descr "TO-92L leads in-line (large body variant of TO-92), also known as TO-226, wide, drill 0.75mm (see https://www.diodes.com/assets/Package-Files/TO92L.pdf and http://www.ti.com/lit/an/snoa059/snoa059.pdf)")
    (tags "TO-92L Molded Wide transistor")
    (path /5EF4F534)
    (fp_text reference Q4 (at 2.55 -4.15 90) (layer F.SilkS)
      (effects (font (size 1 1) (thickness 0.15)))
    )
    (fp_text value BC327 (at 2.54 2.79 90) (layer F.Fab)
      (effects (font (size 1 1) (thickness 0.15)))
    )
    (fp_line (start 0.65 1.6) (end 4.4 1.6) (layer F.Fab) (width 0.1))
    (fp_line (start 0.6 1.7) (end 4.45 1.7) (layer F.SilkS) (width 0.12))
    (fp_line (start -1 1.85) (end 6.1 1.85) (layer B.CrtYd) (width 0.05))
    (fp_line (start 6.1 1.85) (end 6.1 -3.55) (layer B.CrtYd) (width 0.05))
    (fp_line (start 6.1 -3.55) (end -1 -3.55) (layer B.CrtYd) (width 0.05))
    (fp_line (start -1 -3.55) (end -1 1.85) (layer B.CrtYd) (width 0.05))
    (fp_arc (start 2.54 0) (end 4.45 1.7) (angle -15.88591585) (layer F.SilkS) (width 0.12))
    (fp_arc (start 2.54 0) (end 2.54 -2.48) (angle -130.2499344) (layer F.Fab) (width 0.1))
    (fp_arc (start 2.54 0) (end 2.54 -2.48) (angle 129.9527847) (layer F.Fab) (width 0.1))
    (fp_arc (start 2.54 0) (end 3.6 -2.35) (angle 40.72153779) (layer F.SilkS) (width 0.12))
    (fp_arc (start 2.54 0) (end 1.45 -2.35) (angle -40.11670855) (layer F.SilkS) (width 0.12))
    (fp_arc (start 2.54 0) (end 0.6 1.7) (angle 15.44288892) (layer F.SilkS) (width 0.12))
    (fp_text user %R (at 2.55 0.05 90) (layer F.Fab)
      (effects (font (size 1 1) (thickness 0.15)))
    )
    (pad 1 thru_hole rect (at 0 0 180) (size 1.8 1.8) (drill 0.8) (layers *.Cu *.Mask)
      (net 10 "Net-(Q4-Pad1)"))
    (pad 3 thru_hole circle (at 5.08 0 180) (size 1.8 1.8) (drill 0.8) (layers *.Cu *.Mask)
      (net 33 +3V8))
    (pad 2 thru_hole circle (at 2.54 -2.54 180) (size 1.8 1.8) (drill 0.8) (layers *.Cu *.Mask)
      (net 11 "Net-(Q4-Pad2)"))
    (model ${KISYS3DMOD}/Package_TO_SOT_THT.3dshapes/TO-92L_Wide.wrl
      (at (xyz 0 0 0))
      (scale (xyz 1 1 1))
      (rotate (xyz 0 0 0))
    )
  )

  (module Package_TO_SOT_THT:TO-92L_Wide (layer F.Cu) (tedit 5EF8A727) (tstamp 5EF69B3F)
    (at 110.49 99.06 90)
    (descr "TO-92L leads in-line (large body variant of TO-92), also known as TO-226, wide, drill 0.75mm (see https://www.diodes.com/assets/Package-Files/TO92L.pdf and http://www.ti.com/lit/an/snoa059/snoa059.pdf)")
    (tags "TO-92L Molded Wide transistor")
    (path /5EF4E0AB)
    (fp_text reference Q3 (at 2.55 -4.15 90) (layer F.SilkS)
      (effects (font (size 1 1) (thickness 0.15)))
    )
    (fp_text value BC337 (at 2.54 2.79 90) (layer F.Fab)
      (effects (font (size 1 1) (thickness 0.15)))
    )
    (fp_line (start 0.65 1.6) (end 4.4 1.6) (layer F.Fab) (width 0.1))
    (fp_line (start 0.6 1.7) (end 4.45 1.7) (layer F.SilkS) (width 0.12))
    (fp_line (start -1 1.85) (end 6.1 1.85) (layer B.CrtYd) (width 0.05))
    (fp_line (start 6.1 1.85) (end 6.1 -3.55) (layer B.CrtYd) (width 0.05))
    (fp_line (start 6.1 -3.55) (end -1 -3.55) (layer B.CrtYd) (width 0.05))
    (fp_line (start -1 -3.55) (end -1 1.85) (layer B.CrtYd) (width 0.05))
    (fp_arc (start 2.54 0) (end 4.45 1.7) (angle -15.88591585) (layer F.SilkS) (width 0.12))
    (fp_arc (start 2.54 0) (end 2.54 -2.48) (angle -130.2499344) (layer F.Fab) (width 0.1))
    (fp_arc (start 2.54 0) (end 2.54 -2.48) (angle 129.9527847) (layer F.Fab) (width 0.1))
    (fp_arc (start 2.54 0) (end 3.6 -2.35) (angle 40.72153779) (layer F.SilkS) (width 0.12))
    (fp_arc (start 2.54 0) (end 1.45 -2.35) (angle -40.11670855) (layer F.SilkS) (width 0.12))
    (fp_arc (start 2.54 0) (end 0.6 1.7) (angle 15.44288892) (layer F.SilkS) (width 0.12))
    (fp_text user %R (at 2.55 0.05 90) (layer F.Fab)
      (effects (font (size 1 1) (thickness 0.15)))
    )
    (pad 1 thru_hole rect (at 0 0 180) (size 1.8 1.8) (drill 0.8) (layers *.Cu *.Mask)
      (net 1 "Net-(J2-Pad4)"))
    (pad 3 thru_hole oval (at 5.08 0 90) (size 1.8 1.8) (drill 1) (layers F.Cu B.SilkS F.Mask)
      (net 29 GND))
    (pad 2 thru_hole circle (at 2.54 -2.54 180) (size 1.8 1.8) (drill 0.8) (layers *.Cu *.Mask)
      (net 9 "Net-(Q3-Pad2)"))
    (model ${KISYS3DMOD}/Package_TO_SOT_THT.3dshapes/TO-92L_Wide.wrl
      (at (xyz 0 0 0))
      (scale (xyz 1 1 1))
      (rotate (xyz 0 0 0))
    )
  )

  (module Package_TO_SOT_THT:TO-92L_Wide (layer F.Cu) (tedit 5EF89684) (tstamp 5EF81CCE)
    (at 110.49 67.31 90)
    (descr "TO-92L leads in-line (large body variant of TO-92), also known as TO-226, wide, drill 0.75mm (see https://www.diodes.com/assets/Package-Files/TO92L.pdf and http://www.ti.com/lit/an/snoa059/snoa059.pdf)")
    (tags "TO-92L Molded Wide transistor")
    (path /5EF4E5C9)
    (fp_text reference Q2 (at 2.55 -4.15 90) (layer F.SilkS)
      (effects (font (size 1 1) (thickness 0.15)))
    )
    (fp_text value BC327 (at 2.54 2.79 90) (layer F.Fab)
      (effects (font (size 1 1) (thickness 0.15)))
    )
    (fp_line (start 0.65 1.6) (end 4.4 1.6) (layer F.Fab) (width 0.1))
    (fp_line (start 0.6 1.7) (end 4.45 1.7) (layer F.SilkS) (width 0.12))
    (fp_line (start -1 1.85) (end 6.1 1.85) (layer B.CrtYd) (width 0.05))
    (fp_line (start 6.1 1.85) (end 6.1 -3.55) (layer B.CrtYd) (width 0.05))
    (fp_line (start 6.1 -3.55) (end -1 -3.55) (layer B.CrtYd) (width 0.05))
    (fp_line (start -1 -3.55) (end -1 1.85) (layer B.CrtYd) (width 0.05))
    (fp_arc (start 2.54 0) (end 4.45 1.7) (angle -15.88591585) (layer F.SilkS) (width 0.12))
    (fp_arc (start 2.54 0) (end 2.54 -2.48) (angle -130.2499344) (layer F.Fab) (width 0.1))
    (fp_arc (start 2.54 0) (end 2.54 -2.48) (angle 129.9527847) (layer F.Fab) (width 0.1))
    (fp_arc (start 2.54 0) (end 3.6 -2.35) (angle 40.72153779) (layer F.SilkS) (width 0.12))
    (fp_arc (start 2.54 0) (end 1.45 -2.35) (angle -40.11670855) (layer F.SilkS) (width 0.12))
    (fp_arc (start 2.54 0) (end 0.6 1.7) (angle 15.44288892) (layer F.SilkS) (width 0.12))
    (fp_text user %R (at 2.55 0.05 90) (layer F.Fab)
      (effects (font (size 1 1) (thickness 0.15)))
    )
    (pad 1 thru_hole rect (at 0 0 180) (size 1.8 1.8) (drill 0.8) (layers *.Cu *.Mask)
      (net 7 "Net-(Q2-Pad1)"))
    (pad 3 thru_hole circle (at 5.08 0 180) (size 1.8 1.8) (drill 0.8) (layers *.Cu *.Mask)
      (net 33 +3V8))
    (pad 2 thru_hole circle (at 2.54 -2.54 180) (size 1.8 1.8) (drill 0.8) (layers *.Cu *.Mask)
      (net 8 "Net-(Q2-Pad2)"))
    (model ${KISYS3DMOD}/Package_TO_SOT_THT.3dshapes/TO-92L_Wide.wrl
      (at (xyz 0 0 0))
      (scale (xyz 1 1 1))
      (rotate (xyz 0 0 0))
    )
  )

  (module Package_TO_SOT_THT:TO-92L_Wide (layer F.Cu) (tedit 5EF89618) (tstamp 5EF81C5C)
    (at 102.87 67.31 90)
    (descr "TO-92L leads in-line (large body variant of TO-92), also known as TO-226, wide, drill 0.75mm (see https://www.diodes.com/assets/Package-Files/TO92L.pdf and http://www.ti.com/lit/an/snoa059/snoa059.pdf)")
    (tags "TO-92L Molded Wide transistor")
    (path /5EF4EEF3)
    (fp_text reference Q1 (at 2.55 -4.15 90) (layer F.SilkS)
      (effects (font (size 1 1) (thickness 0.15)))
    )
    (fp_text value BC327 (at 2.54 2.79 90) (layer F.Fab)
      (effects (font (size 1 1) (thickness 0.15)))
    )
    (fp_line (start 0.65 1.6) (end 4.4 1.6) (layer F.Fab) (width 0.1))
    (fp_line (start 0.6 1.7) (end 4.45 1.7) (layer F.SilkS) (width 0.12))
    (fp_line (start -1 1.85) (end 6.1 1.85) (layer B.CrtYd) (width 0.05))
    (fp_line (start 6.1 1.85) (end 6.1 -3.55) (layer B.CrtYd) (width 0.05))
    (fp_line (start 6.1 -3.55) (end -1 -3.55) (layer B.CrtYd) (width 0.05))
    (fp_line (start -1 -3.55) (end -1 1.85) (layer B.CrtYd) (width 0.05))
    (fp_arc (start 2.54 0) (end 4.45 1.7) (angle -15.88591585) (layer F.SilkS) (width 0.12))
    (fp_arc (start 2.54 0) (end 2.54 -2.48) (angle -130.2499344) (layer F.Fab) (width 0.1))
    (fp_arc (start 2.54 0) (end 2.54 -2.48) (angle 129.9527847) (layer F.Fab) (width 0.1))
    (fp_arc (start 2.54 0) (end 3.6 -2.35) (angle 40.72153779) (layer F.SilkS) (width 0.12))
    (fp_arc (start 2.54 0) (end 1.45 -2.35) (angle -40.11670855) (layer F.SilkS) (width 0.12))
    (fp_arc (start 2.54 0) (end 0.6 1.7) (angle 15.44288892) (layer F.SilkS) (width 0.12))
    (fp_text user %R (at 2.55 0.05 90) (layer F.Fab)
      (effects (font (size 1 1) (thickness 0.15)))
    )
    (pad 1 thru_hole rect (at 0 0 180) (size 1.8 1.8) (drill 0.8) (layers *.Cu *.Mask)
      (net 5 "Net-(Q1-Pad1)"))
    (pad 3 thru_hole circle (at 5.08 0 180) (size 1.8 1.8) (drill 0.8) (layers *.Cu *.Mask)
      (net 33 +3V8))
    (pad 2 thru_hole circle (at 2.54 -2.54 180) (size 1.8 1.8) (drill 0.8) (layers *.Cu *.Mask)
      (net 6 "Net-(Q1-Pad2)"))
    (model ${KISYS3DMOD}/Package_TO_SOT_THT.3dshapes/TO-92L_Wide.wrl
      (at (xyz 0 0 0))
      (scale (xyz 1 1 1))
      (rotate (xyz 0 0 0))
    )
  )

  (module Resistor_THT:R_Axial_DIN0207_L6.3mm_D2.5mm_P10.16mm_Horizontal placed (layer F.Cu) (tedit 5EF897F4) (tstamp 5EF7D9DC)
    (at 119.38 72.39 270)
    (descr "Resistor, Axial_DIN0207 series, Axial, Horizontal, pin pitch=10.16mm, 0.25W = 1/4W, length*diameter=6.3*2.5mm^2, http://cdn-reichelt.de/documents/datenblatt/B400/1_4W%23YAG.pdf")
    (tags "Resistor Axial_DIN0207 series Axial Horizontal pin pitch 10.16mm 0.25W = 1/4W length 6.3mm diameter 2.5mm")
    (path /5EF6F6E0)
    (fp_text reference R10 (at 5.08 -1.27 90) (layer F.SilkS)
      (effects (font (size 1 1) (thickness 0.15)))
    )
    (fp_text value 150 (at 5.08 2.37 90) (layer F.Fab)
      (effects (font (size 1 1) (thickness 0.15)))
    )
    (fp_line (start 1.93 -1.25) (end 1.93 1.25) (layer F.Fab) (width 0.1))
    (fp_line (start 1.93 1.25) (end 8.23 1.25) (layer F.Fab) (width 0.1))
    (fp_line (start 8.23 1.25) (end 8.23 -1.25) (layer F.Fab) (width 0.1))
    (fp_line (start 8.23 -1.25) (end 1.93 -1.25) (layer F.Fab) (width 0.1))
    (fp_line (start 0 0) (end 1.93 0) (layer F.Fab) (width 0.1))
    (fp_line (start 10.16 0) (end 8.23 0) (layer F.Fab) (width 0.1))
    (fp_line (start 1.81 -1.37) (end 1.81 1.37) (layer F.SilkS) (width 0.12))
    (fp_line (start 1.81 1.37) (end 8.35 1.37) (layer F.SilkS) (width 0.12))
    (fp_line (start 8.35 1.37) (end 8.35 -1.37) (layer F.SilkS) (width 0.12))
    (fp_line (start 8.35 -1.37) (end 1.81 -1.37) (layer F.SilkS) (width 0.12))
    (fp_line (start 1.04 0) (end 1.81 0) (layer F.SilkS) (width 0.12))
    (fp_line (start 9.12 0) (end 8.35 0) (layer F.SilkS) (width 0.12))
    (fp_line (start -1.05 -1.5) (end -1.05 1.5) (layer F.CrtYd) (width 0.05))
    (fp_line (start -1.05 1.5) (end 11.21 1.5) (layer F.CrtYd) (width 0.05))
    (fp_line (start 11.21 1.5) (end 11.21 -1.5) (layer F.CrtYd) (width 0.05))
    (fp_line (start 11.21 -1.5) (end -1.05 -1.5) (layer F.CrtYd) (width 0.05))
    (fp_text user %R (at 5.08 0 90) (layer F.Fab)
      (effects (font (size 1 1) (thickness 0.15)))
    )
    (pad 2 thru_hole oval (at 10.16 0 270) (size 1.8 1.8) (drill 0.8) (layers *.Cu *.Mask)
      (net 4 "Net-(J2-Pad1)"))
    (pad 1 thru_hole circle (at 0 0 270) (size 1.8 1.8) (drill 0.8) (layers *.Cu *.Mask)
      (net 10 "Net-(Q4-Pad1)"))
    (model ${KISYS3DMOD}/Resistor_THT.3dshapes/R_Axial_DIN0207_L6.3mm_D2.5mm_P10.16mm_Horizontal.wrl
      (at (xyz 0 0 0))
      (scale (xyz 1 1 1))
      (rotate (xyz 0 0 0))
    )
  )

  (module Capacitor_THT:CP_Radial_D8.0mm_P2.50mm placed (layer F.Cu) (tedit 5EF8A709) (tstamp 5EF69AA4)
    (at 73.66 63.5 270)
    (descr "CP, Radial series, Radial, pin pitch=2.50mm, , diameter=8mm, Electrolytic Capacitor")
    (tags "CP Radial series Radial pin pitch 2.50mm  diameter 8mm Electrolytic Capacitor")
    (path /5EF7439A)
    (fp_text reference C1 (at 1.25 -5.25 90) (layer F.SilkS)
      (effects (font (size 1 1) (thickness 0.15)))
    )
    (fp_text value 100u (at 1.25 5.25 90) (layer F.Fab)
      (effects (font (size 1 1) (thickness 0.15)))
    )
    (fp_circle (center 1.25 0) (end 5.25 0) (layer F.Fab) (width 0.1))
    (fp_circle (center 1.25 0) (end 5.37 0) (layer F.SilkS) (width 0.12))
    (fp_circle (center 1.25 0) (end 5.5 0) (layer F.CrtYd) (width 0.05))
    (fp_line (start -2.176759 -1.7475) (end -1.376759 -1.7475) (layer F.Fab) (width 0.1))
    (fp_line (start -1.776759 -2.1475) (end -1.776759 -1.3475) (layer F.Fab) (width 0.1))
    (fp_line (start 1.25 -4.08) (end 1.25 4.08) (layer F.SilkS) (width 0.12))
    (fp_line (start 1.29 -4.08) (end 1.29 4.08) (layer F.SilkS) (width 0.12))
    (fp_line (start 1.33 -4.08) (end 1.33 4.08) (layer F.SilkS) (width 0.12))
    (fp_line (start 1.37 -4.079) (end 1.37 4.079) (layer F.SilkS) (width 0.12))
    (fp_line (start 1.41 -4.077) (end 1.41 4.077) (layer F.SilkS) (width 0.12))
    (fp_line (start 1.45 -4.076) (end 1.45 4.076) (layer F.SilkS) (width 0.12))
    (fp_line (start 1.49 -4.074) (end 1.49 -1.04) (layer F.SilkS) (width 0.12))
    (fp_line (start 1.49 1.04) (end 1.49 4.074) (layer F.SilkS) (width 0.12))
    (fp_line (start 1.53 -4.071) (end 1.53 -1.04) (layer F.SilkS) (width 0.12))
    (fp_line (start 1.53 1.04) (end 1.53 4.071) (layer F.SilkS) (width 0.12))
    (fp_line (start 1.57 -4.068) (end 1.57 -1.04) (layer F.SilkS) (width 0.12))
    (fp_line (start 1.57 1.04) (end 1.57 4.068) (layer F.SilkS) (width 0.12))
    (fp_line (start 1.61 -4.065) (end 1.61 -1.04) (layer F.SilkS) (width 0.12))
    (fp_line (start 1.61 1.04) (end 1.61 4.065) (layer F.SilkS) (width 0.12))
    (fp_line (start 1.65 -4.061) (end 1.65 -1.04) (layer F.SilkS) (width 0.12))
    (fp_line (start 1.65 1.04) (end 1.65 4.061) (layer F.SilkS) (width 0.12))
    (fp_line (start 1.69 -4.057) (end 1.69 -1.04) (layer F.SilkS) (width 0.12))
    (fp_line (start 1.69 1.04) (end 1.69 4.057) (layer F.SilkS) (width 0.12))
    (fp_line (start 1.73 -4.052) (end 1.73 -1.04) (layer F.SilkS) (width 0.12))
    (fp_line (start 1.73 1.04) (end 1.73 4.052) (layer F.SilkS) (width 0.12))
    (fp_line (start 1.77 -4.048) (end 1.77 -1.04) (layer F.SilkS) (width 0.12))
    (fp_line (start 1.77 1.04) (end 1.77 4.048) (layer F.SilkS) (width 0.12))
    (fp_line (start 1.81 -4.042) (end 1.81 -1.04) (layer F.SilkS) (width 0.12))
    (fp_line (start 1.81 1.04) (end 1.81 4.042) (layer F.SilkS) (width 0.12))
    (fp_line (start 1.85 -4.037) (end 1.85 -1.04) (layer F.SilkS) (width 0.12))
    (fp_line (start 1.85 1.04) (end 1.85 4.037) (layer F.SilkS) (width 0.12))
    (fp_line (start 1.89 -4.03) (end 1.89 -1.04) (layer F.SilkS) (width 0.12))
    (fp_line (start 1.89 1.04) (end 1.89 4.03) (layer F.SilkS) (width 0.12))
    (fp_line (start 1.93 -4.024) (end 1.93 -1.04) (layer F.SilkS) (width 0.12))
    (fp_line (start 1.93 1.04) (end 1.93 4.024) (layer F.SilkS) (width 0.12))
    (fp_line (start 1.971 -4.017) (end 1.971 -1.04) (layer F.SilkS) (width 0.12))
    (fp_line (start 1.971 1.04) (end 1.971 4.017) (layer F.SilkS) (width 0.12))
    (fp_line (start 2.011 -4.01) (end 2.011 -1.04) (layer F.SilkS) (width 0.12))
    (fp_line (start 2.011 1.04) (end 2.011 4.01) (layer F.SilkS) (width 0.12))
    (fp_line (start 2.051 -4.002) (end 2.051 -1.04) (layer F.SilkS) (width 0.12))
    (fp_line (start 2.051 1.04) (end 2.051 4.002) (layer F.SilkS) (width 0.12))
    (fp_line (start 2.091 -3.994) (end 2.091 -1.04) (layer F.SilkS) (width 0.12))
    (fp_line (start 2.091 1.04) (end 2.091 3.994) (layer F.SilkS) (width 0.12))
    (fp_line (start 2.131 -3.985) (end 2.131 -1.04) (layer F.SilkS) (width 0.12))
    (fp_line (start 2.131 1.04) (end 2.131 3.985) (layer F.SilkS) (width 0.12))
    (fp_line (start 2.171 -3.976) (end 2.171 -1.04) (layer F.SilkS) (width 0.12))
    (fp_line (start 2.171 1.04) (end 2.171 3.976) (layer F.SilkS) (width 0.12))
    (fp_line (start 2.211 -3.967) (end 2.211 -1.04) (layer F.SilkS) (width 0.12))
    (fp_line (start 2.211 1.04) (end 2.211 3.967) (layer F.SilkS) (width 0.12))
    (fp_line (start 2.251 -3.957) (end 2.251 -1.04) (layer F.SilkS) (width 0.12))
    (fp_line (start 2.251 1.04) (end 2.251 3.957) (layer F.SilkS) (width 0.12))
    (fp_line (start 2.291 -3.947) (end 2.291 -1.04) (layer F.SilkS) (width 0.12))
    (fp_line (start 2.291 1.04) (end 2.291 3.947) (layer F.SilkS) (width 0.12))
    (fp_line (start 2.331 -3.936) (end 2.331 -1.04) (layer F.SilkS) (width 0.12))
    (fp_line (start 2.331 1.04) (end 2.331 3.936) (layer F.SilkS) (width 0.12))
    (fp_line (start 2.371 -3.925) (end 2.371 -1.04) (layer F.SilkS) (width 0.12))
    (fp_line (start 2.371 1.04) (end 2.371 3.925) (layer F.SilkS) (width 0.12))
    (fp_line (start 2.411 -3.914) (end 2.411 -1.04) (layer F.SilkS) (width 0.12))
    (fp_line (start 2.411 1.04) (end 2.411 3.914) (layer F.SilkS) (width 0.12))
    (fp_line (start 2.451 -3.902) (end 2.451 -1.04) (layer F.SilkS) (width 0.12))
    (fp_line (start 2.451 1.04) (end 2.451 3.902) (layer F.SilkS) (width 0.12))
    (fp_line (start 2.491 -3.889) (end 2.491 -1.04) (layer F.SilkS) (width 0.12))
    (fp_line (start 2.491 1.04) (end 2.491 3.889) (layer F.SilkS) (width 0.12))
    (fp_line (start 2.531 -3.877) (end 2.531 -1.04) (layer F.SilkS) (width 0.12))
    (fp_line (start 2.531 1.04) (end 2.531 3.877) (layer F.SilkS) (width 0.12))
    (fp_line (start 2.571 -3.863) (end 2.571 -1.04) (layer F.SilkS) (width 0.12))
    (fp_line (start 2.571 1.04) (end 2.571 3.863) (layer F.SilkS) (width 0.12))
    (fp_line (start 2.611 -3.85) (end 2.611 -1.04) (layer F.SilkS) (width 0.12))
    (fp_line (start 2.611 1.04) (end 2.611 3.85) (layer F.SilkS) (width 0.12))
    (fp_line (start 2.651 -3.835) (end 2.651 -1.04) (layer F.SilkS) (width 0.12))
    (fp_line (start 2.651 1.04) (end 2.651 3.835) (layer F.SilkS) (width 0.12))
    (fp_line (start 2.691 -3.821) (end 2.691 -1.04) (layer F.SilkS) (width 0.12))
    (fp_line (start 2.691 1.04) (end 2.691 3.821) (layer F.SilkS) (width 0.12))
    (fp_line (start 2.731 -3.805) (end 2.731 -1.04) (layer F.SilkS) (width 0.12))
    (fp_line (start 2.731 1.04) (end 2.731 3.805) (layer F.SilkS) (width 0.12))
    (fp_line (start 2.771 -3.79) (end 2.771 -1.04) (layer F.SilkS) (width 0.12))
    (fp_line (start 2.771 1.04) (end 2.771 3.79) (layer F.SilkS) (width 0.12))
    (fp_line (start 2.811 -3.774) (end 2.811 -1.04) (layer F.SilkS) (width 0.12))
    (fp_line (start 2.811 1.04) (end 2.811 3.774) (layer F.SilkS) (width 0.12))
    (fp_line (start 2.851 -3.757) (end 2.851 -1.04) (layer F.SilkS) (width 0.12))
    (fp_line (start 2.851 1.04) (end 2.851 3.757) (layer F.SilkS) (width 0.12))
    (fp_line (start 2.891 -3.74) (end 2.891 -1.04) (layer F.SilkS) (width 0.12))
    (fp_line (start 2.891 1.04) (end 2.891 3.74) (layer F.SilkS) (width 0.12))
    (fp_line (start 2.931 -3.722) (end 2.931 -1.04) (layer F.SilkS) (width 0.12))
    (fp_line (start 2.931 1.04) (end 2.931 3.722) (layer F.SilkS) (width 0.12))
    (fp_line (start 2.971 -3.704) (end 2.971 -1.04) (layer F.SilkS) (width 0.12))
    (fp_line (start 2.971 1.04) (end 2.971 3.704) (layer F.SilkS) (width 0.12))
    (fp_line (start 3.011 -3.686) (end 3.011 -1.04) (layer F.SilkS) (width 0.12))
    (fp_line (start 3.011 1.04) (end 3.011 3.686) (layer F.SilkS) (width 0.12))
    (fp_line (start 3.051 -3.666) (end 3.051 -1.04) (layer F.SilkS) (width 0.12))
    (fp_line (start 3.051 1.04) (end 3.051 3.666) (layer F.SilkS) (width 0.12))
    (fp_line (start 3.091 -3.647) (end 3.091 -1.04) (layer F.SilkS) (width 0.12))
    (fp_line (start 3.091 1.04) (end 3.091 3.647) (layer F.SilkS) (width 0.12))
    (fp_line (start 3.131 -3.627) (end 3.131 -1.04) (layer F.SilkS) (width 0.12))
    (fp_line (start 3.131 1.04) (end 3.131 3.627) (layer F.SilkS) (width 0.12))
    (fp_line (start 3.171 -3.606) (end 3.171 -1.04) (layer F.SilkS) (width 0.12))
    (fp_line (start 3.171 1.04) (end 3.171 3.606) (layer F.SilkS) (width 0.12))
    (fp_line (start 3.211 -3.584) (end 3.211 -1.04) (layer F.SilkS) (width 0.12))
    (fp_line (start 3.211 1.04) (end 3.211 3.584) (layer F.SilkS) (width 0.12))
    (fp_line (start 3.251 -3.562) (end 3.251 -1.04) (layer F.SilkS) (width 0.12))
    (fp_line (start 3.251 1.04) (end 3.251 3.562) (layer F.SilkS) (width 0.12))
    (fp_line (start 3.291 -3.54) (end 3.291 -1.04) (layer F.SilkS) (width 0.12))
    (fp_line (start 3.291 1.04) (end 3.291 3.54) (layer F.SilkS) (width 0.12))
    (fp_line (start 3.331 -3.517) (end 3.331 -1.04) (layer F.SilkS) (width 0.12))
    (fp_line (start 3.331 1.04) (end 3.331 3.517) (layer F.SilkS) (width 0.12))
    (fp_line (start 3.371 -3.493) (end 3.371 -1.04) (layer F.SilkS) (width 0.12))
    (fp_line (start 3.371 1.04) (end 3.371 3.493) (layer F.SilkS) (width 0.12))
    (fp_line (start 3.411 -3.469) (end 3.411 -1.04) (layer F.SilkS) (width 0.12))
    (fp_line (start 3.411 1.04) (end 3.411 3.469) (layer F.SilkS) (width 0.12))
    (fp_line (start 3.451 -3.444) (end 3.451 -1.04) (layer F.SilkS) (width 0.12))
    (fp_line (start 3.451 1.04) (end 3.451 3.444) (layer F.SilkS) (width 0.12))
    (fp_line (start 3.491 -3.418) (end 3.491 -1.04) (layer F.SilkS) (width 0.12))
    (fp_line (start 3.491 1.04) (end 3.491 3.418) (layer F.SilkS) (width 0.12))
    (fp_line (start 3.531 -3.392) (end 3.531 -1.04) (layer F.SilkS) (width 0.12))
    (fp_line (start 3.531 1.04) (end 3.531 3.392) (layer F.SilkS) (width 0.12))
    (fp_line (start 3.571 -3.365) (end 3.571 3.365) (layer F.SilkS) (width 0.12))
    (fp_line (start 3.611 -3.338) (end 3.611 3.338) (layer F.SilkS) (width 0.12))
    (fp_line (start 3.651 -3.309) (end 3.651 3.309) (layer F.SilkS) (width 0.12))
    (fp_line (start 3.691 -3.28) (end 3.691 3.28) (layer F.SilkS) (width 0.12))
    (fp_line (start 3.731 -3.25) (end 3.731 3.25) (layer F.SilkS) (width 0.12))
    (fp_line (start 3.771 -3.22) (end 3.771 3.22) (layer F.SilkS) (width 0.12))
    (fp_line (start 3.811 -3.189) (end 3.811 3.189) (layer F.SilkS) (width 0.12))
    (fp_line (start 3.851 -3.156) (end 3.851 3.156) (layer F.SilkS) (width 0.12))
    (fp_line (start 3.891 -3.124) (end 3.891 3.124) (layer F.SilkS) (width 0.12))
    (fp_line (start 3.931 -3.09) (end 3.931 3.09) (layer F.SilkS) (width 0.12))
    (fp_line (start 3.971 -3.055) (end 3.971 3.055) (layer F.SilkS) (width 0.12))
    (fp_line (start 4.011 -3.019) (end 4.011 3.019) (layer F.SilkS) (width 0.12))
    (fp_line (start 4.051 -2.983) (end 4.051 2.983) (layer F.SilkS) (width 0.12))
    (fp_line (start 4.091 -2.945) (end 4.091 2.945) (layer F.SilkS) (width 0.12))
    (fp_line (start 4.131 -2.907) (end 4.131 2.907) (layer F.SilkS) (width 0.12))
    (fp_line (start 4.171 -2.867) (end 4.171 2.867) (layer F.SilkS) (width 0.12))
    (fp_line (start 4.211 -2.826) (end 4.211 2.826) (layer F.SilkS) (width 0.12))
    (fp_line (start 4.251 -2.784) (end 4.251 2.784) (layer F.SilkS) (width 0.12))
    (fp_line (start 4.291 -2.741) (end 4.291 2.741) (layer F.SilkS) (width 0.12))
    (fp_line (start 4.331 -2.697) (end 4.331 2.697) (layer F.SilkS) (width 0.12))
    (fp_line (start 4.371 -2.651) (end 4.371 2.651) (layer F.SilkS) (width 0.12))
    (fp_line (start 4.411 -2.604) (end 4.411 2.604) (layer F.SilkS) (width 0.12))
    (fp_line (start 4.451 -2.556) (end 4.451 2.556) (layer F.SilkS) (width 0.12))
    (fp_line (start 4.491 -2.505) (end 4.491 2.505) (layer F.SilkS) (width 0.12))
    (fp_line (start 4.531 -2.454) (end 4.531 2.454) (layer F.SilkS) (width 0.12))
    (fp_line (start 4.571 -2.4) (end 4.571 2.4) (layer F.SilkS) (width 0.12))
    (fp_line (start 4.611 -2.345) (end 4.611 2.345) (layer F.SilkS) (width 0.12))
    (fp_line (start 4.651 -2.287) (end 4.651 2.287) (layer F.SilkS) (width 0.12))
    (fp_line (start 4.691 -2.228) (end 4.691 2.228) (layer F.SilkS) (width 0.12))
    (fp_line (start 4.731 -2.166) (end 4.731 2.166) (layer F.SilkS) (width 0.12))
    (fp_line (start 4.771 -2.102) (end 4.771 2.102) (layer F.SilkS) (width 0.12))
    (fp_line (start 4.811 -2.034) (end 4.811 2.034) (layer F.SilkS) (width 0.12))
    (fp_line (start 4.851 -1.964) (end 4.851 1.964) (layer F.SilkS) (width 0.12))
    (fp_line (start 4.891 -1.89) (end 4.891 1.89) (layer F.SilkS) (width 0.12))
    (fp_line (start 4.931 -1.813) (end 4.931 1.813) (layer F.SilkS) (width 0.12))
    (fp_line (start 4.971 -1.731) (end 4.971 1.731) (layer F.SilkS) (width 0.12))
    (fp_line (start 5.011 -1.645) (end 5.011 1.645) (layer F.SilkS) (width 0.12))
    (fp_line (start 5.051 -1.552) (end 5.051 1.552) (layer F.SilkS) (width 0.12))
    (fp_line (start 5.091 -1.453) (end 5.091 1.453) (layer F.SilkS) (width 0.12))
    (fp_line (start 5.131 -1.346) (end 5.131 1.346) (layer F.SilkS) (width 0.12))
    (fp_line (start 5.171 -1.229) (end 5.171 1.229) (layer F.SilkS) (width 0.12))
    (fp_line (start 5.211 -1.098) (end 5.211 1.098) (layer F.SilkS) (width 0.12))
    (fp_line (start 5.251 -0.948) (end 5.251 0.948) (layer F.SilkS) (width 0.12))
    (fp_line (start 5.291 -0.768) (end 5.291 0.768) (layer F.SilkS) (width 0.12))
    (fp_line (start 5.331 -0.533) (end 5.331 0.533) (layer F.SilkS) (width 0.12))
    (fp_line (start -3.159698 -2.315) (end -2.359698 -2.315) (layer F.SilkS) (width 0.12))
    (fp_line (start -2.759698 -2.715) (end -2.759698 -1.915) (layer F.SilkS) (width 0.12))
    (fp_text user %R (at 1.25 0 90) (layer F.Fab)
      (effects (font (size 1 1) (thickness 0.15)))
    )
    (pad 2 thru_hole oval (at 2.5 0 270) (size 1.8 1.8) (drill 1) (layers F.Cu B.SilkS F.Mask)
      (net 29 GND))
    (pad 1 thru_hole rect (at 0 0 270) (size 1.8 1.8) (drill 0.8) (layers *.Cu *.Mask)
      (net 33 +3V8))
    (model ${KISYS3DMOD}/Capacitor_THT.3dshapes/CP_Radial_D8.0mm_P2.50mm.wrl
      (at (xyz 0 0 0))
      (scale (xyz 1 1 1))
      (rotate (xyz 0 0 0))
    )
  )

  (module Connector_PinHeader_2.54mm:PinHeader_1x04_P2.54mm_Vertical placed (layer F.Cu) (tedit 5EF897A5) (tstamp 5EF69ADB)
    (at 64.77 90.17)
    (descr "Through hole straight pin header, 1x04, 2.54mm pitch, single row")
    (tags "Through hole pin header THT 1x04 2.54mm single row")
    (path /5EF56EEA)
    (fp_text reference J1 (at 0 -2.33) (layer F.SilkS)
      (effects (font (size 1 1) (thickness 0.15)))
    )
    (fp_text value LDR_and_Level (at 3.81 11.43) (layer F.Fab)
      (effects (font (size 1 1) (thickness 0.15)))
    )
    (fp_line (start -0.635 -1.27) (end 1.27 -1.27) (layer F.Fab) (width 0.1))
    (fp_line (start 1.27 -1.27) (end 1.27 8.89) (layer F.Fab) (width 0.1))
    (fp_line (start 1.27 8.89) (end -1.27 8.89) (layer F.Fab) (width 0.1))
    (fp_line (start -1.27 8.89) (end -1.27 -0.635) (layer F.Fab) (width 0.1))
    (fp_line (start -1.27 -0.635) (end -0.635 -1.27) (layer F.Fab) (width 0.1))
    (fp_line (start -1.33 8.95) (end 1.33 8.95) (layer F.SilkS) (width 0.12))
    (fp_line (start -1.33 1.27) (end -1.33 8.95) (layer F.SilkS) (width 0.12))
    (fp_line (start 1.33 1.27) (end 1.33 8.95) (layer F.SilkS) (width 0.12))
    (fp_line (start -1.33 1.27) (end 1.33 1.27) (layer F.SilkS) (width 0.12))
    (fp_line (start -1.33 0) (end -1.33 -1.33) (layer F.SilkS) (width 0.12))
    (fp_line (start -1.33 -1.33) (end 0 -1.33) (layer F.SilkS) (width 0.12))
    (fp_line (start -1.8 -1.8) (end -1.8 9.4) (layer F.CrtYd) (width 0.05))
    (fp_line (start -1.8 9.4) (end 1.8 9.4) (layer F.CrtYd) (width 0.05))
    (fp_line (start 1.8 9.4) (end 1.8 -1.8) (layer F.CrtYd) (width 0.05))
    (fp_line (start 1.8 -1.8) (end -1.8 -1.8) (layer F.CrtYd) (width 0.05))
    (fp_text user %R (at 0 3.81 90) (layer F.Fab)
      (effects (font (size 1 1) (thickness 0.15)))
    )
    (pad 4 thru_hole oval (at 0 7.62) (size 1.8 1.8) (drill 1) (layers *.Cu *.Mask)
      (net 30 LevelEnable))
    (pad 3 thru_hole oval (at 0 5.08) (size 1.8 1.8) (drill 1) (layers *.Cu *.Mask)
      (net 31 Level))
    (pad 2 thru_hole oval (at 0 2.54) (size 1.8 1.8) (drill 1) (layers *.Cu *.Mask)
      (net 32 LDR))
    (pad 1 thru_hole rect (at 0 0) (size 1.8 1.8) (drill 1) (layers *.Cu *.Mask)
      (net 33 +3V8))
    (model ${KISYS3DMOD}/Connector_PinHeader_2.54mm.3dshapes/PinHeader_1x04_P2.54mm_Vertical.wrl
      (at (xyz 0 0 0))
      (scale (xyz 1 1 1))
      (rotate (xyz 0 0 0))
    )
  )

  (module Package_DIP:DIP-28_W7.62mm placed (layer F.Cu) (tedit 5EF8A720) (tstamp 5EF69C67)
    (at 92.71 99.06 180)
    (descr "28-lead though-hole mounted DIP package, row spacing 7.62 mm (300 mils)")
    (tags "THT DIP DIL PDIP 2.54mm 7.62mm 300mil")
    (path /5EF74093)
    (fp_text reference U1 (at 3.81 -2.33) (layer F.SilkS)
      (effects (font (size 1 1) (thickness 0.15)))
    )
    (fp_text value ATmega328P-PU (at 3.81 35.35) (layer F.Fab)
      (effects (font (size 1 1) (thickness 0.15)))
    )
    (fp_line (start 1.635 -1.27) (end 6.985 -1.27) (layer F.Fab) (width 0.1))
    (fp_line (start 6.985 -1.27) (end 6.985 34.29) (layer F.Fab) (width 0.1))
    (fp_line (start 6.985 34.29) (end 0.635 34.29) (layer F.Fab) (width 0.1))
    (fp_line (start 0.635 34.29) (end 0.635 -0.27) (layer F.Fab) (width 0.1))
    (fp_line (start 0.635 -0.27) (end 1.635 -1.27) (layer F.Fab) (width 0.1))
    (fp_line (start 2.81 -1.33) (end 1.16 -1.33) (layer F.SilkS) (width 0.12))
    (fp_line (start 1.16 -1.33) (end 1.16 34.35) (layer F.SilkS) (width 0.12))
    (fp_line (start 1.16 34.35) (end 6.46 34.35) (layer F.SilkS) (width 0.12))
    (fp_line (start 6.46 34.35) (end 6.46 -1.33) (layer F.SilkS) (width 0.12))
    (fp_line (start 6.46 -1.33) (end 4.81 -1.33) (layer F.SilkS) (width 0.12))
    (fp_line (start -1.1 -1.55) (end -1.1 34.55) (layer F.CrtYd) (width 0.05))
    (fp_line (start -1.1 34.55) (end 8.7 34.55) (layer F.CrtYd) (width 0.05))
    (fp_line (start 8.7 34.55) (end 8.7 -1.55) (layer F.CrtYd) (width 0.05))
    (fp_line (start 8.7 -1.55) (end -1.1 -1.55) (layer F.CrtYd) (width 0.05))
    (fp_text user %R (at 3.81 16.51) (layer F.Fab)
      (effects (font (size 1 1) (thickness 0.15)))
    )
    (fp_arc (start 3.81 -1.33) (end 2.81 -1.33) (angle -180) (layer F.SilkS) (width 0.12))
    (pad 28 thru_hole oval (at 7.62 0 180) (size 1.8 1.8) (drill 0.8) (layers *.Cu *.Mask)
      (net 12 "Net-(U1-Pad28)"))
    (pad 14 thru_hole oval (at 0 33.02 180) (size 1.8 1.8) (drill 0.8) (layers *.Cu *.Mask)
      (net 13 "Net-(U1-Pad14)"))
    (pad 27 thru_hole oval (at 7.62 2.54 180) (size 1.8 1.8) (drill 0.8) (layers *.Cu *.Mask)
      (net 14 "Net-(U1-Pad27)"))
    (pad 13 thru_hole oval (at 0 30.48 180) (size 1.8 1.8) (drill 0.8) (layers *.Cu *.Mask)
      (net 30 LevelEnable))
    (pad 26 thru_hole oval (at 7.62 5.08 180) (size 1.8 1.8) (drill 0.8) (layers *.Cu *.Mask)
      (net 15 "Net-(U1-Pad26)"))
    (pad 12 thru_hole oval (at 0 27.94 180) (size 1.8 1.8) (drill 0.8) (layers *.Cu *.Mask)
      (net 36 "Net-(R7-Pad2)"))
    (pad 25 thru_hole oval (at 7.62 7.62 180) (size 1.8 1.8) (drill 0.8) (layers *.Cu *.Mask)
      (net 28 VoltageSensor))
    (pad 11 thru_hole oval (at 0 25.4 180) (size 1.8 1.8) (drill 0.8) (layers *.Cu *.Mask)
      (net 35 "Net-(R6-Pad2)"))
    (pad 24 thru_hole oval (at 7.62 10.16 180) (size 1.8 1.8) (drill 0.8) (layers *.Cu *.Mask)
      (net 16 "Net-(U1-Pad24)"))
    (pad 10 thru_hole oval (at 0 22.86 180) (size 1.8 1.8) (drill 0.8) (layers *.Cu *.Mask)
      (net 17 "Net-(U1-Pad10)"))
    (pad 23 thru_hole oval (at 7.62 12.7 180) (size 1.8 1.8) (drill 0.8) (layers *.Cu *.Mask)
      (net 31 Level))
    (pad 9 thru_hole oval (at 0 20.32 180) (size 1.8 1.8) (drill 0.8) (layers *.Cu *.Mask)
      (net 18 "Net-(U1-Pad9)"))
    (pad 22 thru_hole oval (at 7.62 15.24 180) (size 1.8 1.8) (drill 1) (layers F.Cu B.SilkS F.Mask)
      (net 29 GND))
    (pad 8 thru_hole oval (at 0 17.78 180) (size 1.8 1.8) (drill 1) (layers F.Cu B.SilkS F.Mask)
      (net 29 GND))
    (pad 21 thru_hole oval (at 7.62 17.78 180) (size 1.8 1.8) (drill 0.8) (layers *.Cu *.Mask)
      (net 19 "Net-(U1-Pad21)"))
    (pad 7 thru_hole oval (at 0 15.24 180) (size 1.8 1.8) (drill 0.8) (layers *.Cu *.Mask)
      (net 33 +3V8))
    (pad 20 thru_hole oval (at 7.62 20.32 180) (size 1.8 1.8) (drill 0.8) (layers *.Cu *.Mask)
      (net 33 +3V8))
    (pad 6 thru_hole oval (at 0 12.7 180) (size 1.8 1.8) (drill 0.8) (layers *.Cu *.Mask)
      (net 37 "Net-(R8-Pad2)"))
    (pad 19 thru_hole oval (at 7.62 22.86 180) (size 1.8 1.8) (drill 0.8) (layers *.Cu *.Mask)
      (net 20 "Net-(U1-Pad19)"))
    (pad 5 thru_hole oval (at 0 10.16 180) (size 1.8 1.8) (drill 0.8) (layers *.Cu *.Mask)
      (net 34 "Net-(R5-Pad2)"))
    (pad 18 thru_hole oval (at 7.62 25.4 180) (size 1.8 1.8) (drill 0.8) (layers *.Cu *.Mask)
      (net 21 "Net-(U1-Pad18)"))
    (pad 4 thru_hole oval (at 0 7.62 180) (size 1.8 1.8) (drill 0.8) (layers *.Cu *.Mask)
      (net 32 LDR))
    (pad 17 thru_hole oval (at 7.62 27.94 180) (size 1.8 1.8) (drill 0.8) (layers *.Cu *.Mask)
      (net 22 "Net-(U1-Pad17)"))
    (pad 3 thru_hole oval (at 0 5.08 180) (size 1.8 1.8) (drill 0.8) (layers *.Cu *.Mask)
      (net 23 "Net-(U1-Pad3)"))
    (pad 16 thru_hole oval (at 7.62 30.48 180) (size 1.8 1.8) (drill 0.8) (layers *.Cu *.Mask)
      (net 24 "Net-(U1-Pad16)"))
    (pad 2 thru_hole oval (at 0 2.54 180) (size 1.8 1.8) (drill 0.8) (layers *.Cu *.Mask)
      (net 25 "Net-(U1-Pad2)"))
    (pad 15 thru_hole oval (at 7.62 33.02 180) (size 1.8 1.8) (drill 0.8) (layers *.Cu *.Mask)
      (net 26 "Net-(U1-Pad15)"))
    (pad 1 thru_hole rect (at 0 0 180) (size 1.8 1.8) (drill 0.8) (layers *.Cu *.Mask)
      (net 27 "Net-(U1-Pad1)"))
    (model ${KISYS3DMOD}/Package_DIP.3dshapes/DIP-28_W7.62mm.wrl
      (at (xyz 0 0 0))
      (scale (xyz 1 1 1))
      (rotate (xyz 0 0 0))
    )
  )

  (module Resistor_THT:R_Axial_DIN0207_L6.3mm_D2.5mm_P10.16mm_Horizontal placed (layer F.Cu) (tedit 5EF897DA) (tstamp 5EF7DA1E)
    (at 104.14 72.39 270)
    (descr "Resistor, Axial_DIN0207 series, Axial, Horizontal, pin pitch=10.16mm, 0.25W = 1/4W, length*diameter=6.3*2.5mm^2, http://cdn-reichelt.de/documents/datenblatt/B400/1_4W%23YAG.pdf")
    (tags "Resistor Axial_DIN0207 series Axial Horizontal pin pitch 10.16mm 0.25W = 1/4W length 6.3mm diameter 2.5mm")
    (path /5EF69EF5)
    (fp_text reference R9 (at 5.08 -2.37 90) (layer F.SilkS)
      (effects (font (size 1 1) (thickness 0.15)))
    )
    (fp_text value 150 (at 5.08 2.37 90) (layer F.Fab)
      (effects (font (size 1 1) (thickness 0.15)))
    )
    (fp_line (start 1.93 -1.25) (end 1.93 1.25) (layer F.Fab) (width 0.1))
    (fp_line (start 1.93 1.25) (end 8.23 1.25) (layer F.Fab) (width 0.1))
    (fp_line (start 8.23 1.25) (end 8.23 -1.25) (layer F.Fab) (width 0.1))
    (fp_line (start 8.23 -1.25) (end 1.93 -1.25) (layer F.Fab) (width 0.1))
    (fp_line (start 0 0) (end 1.93 0) (layer F.Fab) (width 0.1))
    (fp_line (start 10.16 0) (end 8.23 0) (layer F.Fab) (width 0.1))
    (fp_line (start 1.81 -1.37) (end 1.81 1.37) (layer F.SilkS) (width 0.12))
    (fp_line (start 1.81 1.37) (end 8.35 1.37) (layer F.SilkS) (width 0.12))
    (fp_line (start 8.35 1.37) (end 8.35 -1.37) (layer F.SilkS) (width 0.12))
    (fp_line (start 8.35 -1.37) (end 1.81 -1.37) (layer F.SilkS) (width 0.12))
    (fp_line (start 1.04 0) (end 1.81 0) (layer F.SilkS) (width 0.12))
    (fp_line (start 9.12 0) (end 8.35 0) (layer F.SilkS) (width 0.12))
    (fp_line (start -1.05 -1.5) (end -1.05 1.5) (layer F.CrtYd) (width 0.05))
    (fp_line (start -1.05 1.5) (end 11.21 1.5) (layer F.CrtYd) (width 0.05))
    (fp_line (start 11.21 1.5) (end 11.21 -1.5) (layer F.CrtYd) (width 0.05))
    (fp_line (start 11.21 -1.5) (end -1.05 -1.5) (layer F.CrtYd) (width 0.05))
    (fp_text user %R (at 5.08 0 90) (layer F.Fab)
      (effects (font (size 1 1) (thickness 0.15)))
    )
    (pad 2 thru_hole oval (at 10.16 0 270) (size 1.8 1.8) (drill 0.8) (layers *.Cu *.Mask)
      (net 2 "Net-(J2-Pad3)"))
    (pad 1 thru_hole circle (at 0 0 270) (size 1.8 1.8) (drill 0.8) (layers *.Cu *.Mask)
      (net 5 "Net-(Q1-Pad1)"))
    (model ${KISYS3DMOD}/Resistor_THT.3dshapes/R_Axial_DIN0207_L6.3mm_D2.5mm_P10.16mm_Horizontal.wrl
      (at (xyz 0 0 0))
      (scale (xyz 1 1 1))
      (rotate (xyz 0 0 0))
    )
  )

  (module Resistor_THT:R_Axial_DIN0207_L6.3mm_D2.5mm_P10.16mm_Horizontal placed (layer F.Cu) (tedit 5EF89803) (tstamp 5EF69C09)
    (at 100.33 97.79 90)
    (descr "Resistor, Axial_DIN0207 series, Axial, Horizontal, pin pitch=10.16mm, 0.25W = 1/4W, length*diameter=6.3*2.5mm^2, http://cdn-reichelt.de/documents/datenblatt/B400/1_4W%23YAG.pdf")
    (tags "Resistor Axial_DIN0207 series Axial Horizontal pin pitch 10.16mm 0.25W = 1/4W length 6.3mm diameter 2.5mm")
    (path /5EF716A9)
    (fp_text reference R8 (at 5.08 -2.37 90) (layer F.SilkS)
      (effects (font (size 1 1) (thickness 0.15)))
    )
    (fp_text value 10k (at 5.08 2.37 90) (layer F.Fab)
      (effects (font (size 1 1) (thickness 0.15)))
    )
    (fp_line (start 1.93 -1.25) (end 1.93 1.25) (layer F.Fab) (width 0.1))
    (fp_line (start 1.93 1.25) (end 8.23 1.25) (layer F.Fab) (width 0.1))
    (fp_line (start 8.23 1.25) (end 8.23 -1.25) (layer F.Fab) (width 0.1))
    (fp_line (start 8.23 -1.25) (end 1.93 -1.25) (layer F.Fab) (width 0.1))
    (fp_line (start 0 0) (end 1.93 0) (layer F.Fab) (width 0.1))
    (fp_line (start 10.16 0) (end 8.23 0) (layer F.Fab) (width 0.1))
    (fp_line (start 1.81 -1.37) (end 1.81 1.37) (layer F.SilkS) (width 0.12))
    (fp_line (start 1.81 1.37) (end 8.35 1.37) (layer F.SilkS) (width 0.12))
    (fp_line (start 8.35 1.37) (end 8.35 -1.37) (layer F.SilkS) (width 0.12))
    (fp_line (start 8.35 -1.37) (end 1.81 -1.37) (layer F.SilkS) (width 0.12))
    (fp_line (start 1.04 0) (end 1.81 0) (layer F.SilkS) (width 0.12))
    (fp_line (start 9.12 0) (end 8.35 0) (layer F.SilkS) (width 0.12))
    (fp_line (start -1.05 -1.5) (end -1.05 1.5) (layer F.CrtYd) (width 0.05))
    (fp_line (start -1.05 1.5) (end 11.21 1.5) (layer F.CrtYd) (width 0.05))
    (fp_line (start 11.21 1.5) (end 11.21 -1.5) (layer F.CrtYd) (width 0.05))
    (fp_line (start 11.21 -1.5) (end -1.05 -1.5) (layer F.CrtYd) (width 0.05))
    (fp_text user %R (at 5.08 0 90) (layer F.Fab)
      (effects (font (size 1 1) (thickness 0.15)))
    )
    (pad 2 thru_hole oval (at 10.16 0 90) (size 1.8 1.8) (drill 0.8) (layers *.Cu *.Mask)
      (net 37 "Net-(R8-Pad2)"))
    (pad 1 thru_hole circle (at 0 0 90) (size 1.8 1.8) (drill 0.8) (layers *.Cu *.Mask)
      (net 9 "Net-(Q3-Pad2)"))
    (model ${KISYS3DMOD}/Resistor_THT.3dshapes/R_Axial_DIN0207_L6.3mm_D2.5mm_P10.16mm_Horizontal.wrl
      (at (xyz 0 0 0))
      (scale (xyz 1 1 1))
      (rotate (xyz 0 0 0))
    )
  )

  (module Resistor_THT:R_Axial_DIN0207_L6.3mm_D2.5mm_P10.16mm_Horizontal placed (layer F.Cu) (tedit 5EF897EC) (tstamp 5EF7DA60)
    (at 115.57 72.39 270)
    (descr "Resistor, Axial_DIN0207 series, Axial, Horizontal, pin pitch=10.16mm, 0.25W = 1/4W, length*diameter=6.3*2.5mm^2, http://cdn-reichelt.de/documents/datenblatt/B400/1_4W%23YAG.pdf")
    (tags "Resistor Axial_DIN0207 series Axial Horizontal pin pitch 10.16mm 0.25W = 1/4W length 6.3mm diameter 2.5mm")
    (path /5EF7073F)
    (fp_text reference R7 (at 5.08 -2.37 90) (layer F.SilkS)
      (effects (font (size 1 1) (thickness 0.15)))
    )
    (fp_text value 10k (at 5.08 2.37 90) (layer F.Fab)
      (effects (font (size 1 1) (thickness 0.15)))
    )
    (fp_line (start 1.93 -1.25) (end 1.93 1.25) (layer F.Fab) (width 0.1))
    (fp_line (start 1.93 1.25) (end 8.23 1.25) (layer F.Fab) (width 0.1))
    (fp_line (start 8.23 1.25) (end 8.23 -1.25) (layer F.Fab) (width 0.1))
    (fp_line (start 8.23 -1.25) (end 1.93 -1.25) (layer F.Fab) (width 0.1))
    (fp_line (start 0 0) (end 1.93 0) (layer F.Fab) (width 0.1))
    (fp_line (start 10.16 0) (end 8.23 0) (layer F.Fab) (width 0.1))
    (fp_line (start 1.81 -1.37) (end 1.81 1.37) (layer F.SilkS) (width 0.12))
    (fp_line (start 1.81 1.37) (end 8.35 1.37) (layer F.SilkS) (width 0.12))
    (fp_line (start 8.35 1.37) (end 8.35 -1.37) (layer F.SilkS) (width 0.12))
    (fp_line (start 8.35 -1.37) (end 1.81 -1.37) (layer F.SilkS) (width 0.12))
    (fp_line (start 1.04 0) (end 1.81 0) (layer F.SilkS) (width 0.12))
    (fp_line (start 9.12 0) (end 8.35 0) (layer F.SilkS) (width 0.12))
    (fp_line (start -1.05 -1.5) (end -1.05 1.5) (layer F.CrtYd) (width 0.05))
    (fp_line (start -1.05 1.5) (end 11.21 1.5) (layer F.CrtYd) (width 0.05))
    (fp_line (start 11.21 1.5) (end 11.21 -1.5) (layer F.CrtYd) (width 0.05))
    (fp_line (start 11.21 -1.5) (end -1.05 -1.5) (layer F.CrtYd) (width 0.05))
    (fp_text user %R (at 5.08 0 90) (layer F.Fab)
      (effects (font (size 1 1) (thickness 0.15)))
    )
    (pad 2 thru_hole oval (at 10.16 0 270) (size 1.8 1.8) (drill 0.8) (layers *.Cu *.Mask)
      (net 36 "Net-(R7-Pad2)"))
    (pad 1 thru_hole circle (at 0 0 270) (size 1.8 1.8) (drill 0.8) (layers *.Cu *.Mask)
      (net 11 "Net-(Q4-Pad2)"))
    (model ${KISYS3DMOD}/Resistor_THT.3dshapes/R_Axial_DIN0207_L6.3mm_D2.5mm_P10.16mm_Horizontal.wrl
      (at (xyz 0 0 0))
      (scale (xyz 1 1 1))
      (rotate (xyz 0 0 0))
    )
  )

  (module Resistor_THT:R_Axial_DIN0207_L6.3mm_D2.5mm_P10.16mm_Horizontal placed (layer F.Cu) (tedit 5EF897E0) (tstamp 5EF7D99A)
    (at 107.95 72.39 270)
    (descr "Resistor, Axial_DIN0207 series, Axial, Horizontal, pin pitch=10.16mm, 0.25W = 1/4W, length*diameter=6.3*2.5mm^2, http://cdn-reichelt.de/documents/datenblatt/B400/1_4W%23YAG.pdf")
    (tags "Resistor Axial_DIN0207 series Axial Horizontal pin pitch 10.16mm 0.25W = 1/4W length 6.3mm diameter 2.5mm")
    (path /5EF70D7F)
    (fp_text reference R6 (at 5.08 -2.37 90) (layer F.SilkS)
      (effects (font (size 1 1) (thickness 0.15)))
    )
    (fp_text value 10k (at 5.08 2.37 90) (layer F.Fab)
      (effects (font (size 1 1) (thickness 0.15)))
    )
    (fp_line (start 1.93 -1.25) (end 1.93 1.25) (layer F.Fab) (width 0.1))
    (fp_line (start 1.93 1.25) (end 8.23 1.25) (layer F.Fab) (width 0.1))
    (fp_line (start 8.23 1.25) (end 8.23 -1.25) (layer F.Fab) (width 0.1))
    (fp_line (start 8.23 -1.25) (end 1.93 -1.25) (layer F.Fab) (width 0.1))
    (fp_line (start 0 0) (end 1.93 0) (layer F.Fab) (width 0.1))
    (fp_line (start 10.16 0) (end 8.23 0) (layer F.Fab) (width 0.1))
    (fp_line (start 1.81 -1.37) (end 1.81 1.37) (layer F.SilkS) (width 0.12))
    (fp_line (start 1.81 1.37) (end 8.35 1.37) (layer F.SilkS) (width 0.12))
    (fp_line (start 8.35 1.37) (end 8.35 -1.37) (layer F.SilkS) (width 0.12))
    (fp_line (start 8.35 -1.37) (end 1.81 -1.37) (layer F.SilkS) (width 0.12))
    (fp_line (start 1.04 0) (end 1.81 0) (layer F.SilkS) (width 0.12))
    (fp_line (start 9.12 0) (end 8.35 0) (layer F.SilkS) (width 0.12))
    (fp_line (start -1.05 -1.5) (end -1.05 1.5) (layer F.CrtYd) (width 0.05))
    (fp_line (start -1.05 1.5) (end 11.21 1.5) (layer F.CrtYd) (width 0.05))
    (fp_line (start 11.21 1.5) (end 11.21 -1.5) (layer F.CrtYd) (width 0.05))
    (fp_line (start 11.21 -1.5) (end -1.05 -1.5) (layer F.CrtYd) (width 0.05))
    (fp_text user %R (at 5.08 0 90) (layer F.Fab)
      (effects (font (size 1 1) (thickness 0.15)))
    )
    (pad 2 thru_hole oval (at 10.16 0 270) (size 1.8 1.8) (drill 0.8) (layers *.Cu *.Mask)
      (net 35 "Net-(R6-Pad2)"))
    (pad 1 thru_hole circle (at 0 0 270) (size 1.8 1.8) (drill 0.8) (layers *.Cu *.Mask)
      (net 8 "Net-(Q2-Pad2)"))
    (model ${KISYS3DMOD}/Resistor_THT.3dshapes/R_Axial_DIN0207_L6.3mm_D2.5mm_P10.16mm_Horizontal.wrl
      (at (xyz 0 0 0))
      (scale (xyz 1 1 1))
      (rotate (xyz 0 0 0))
    )
  )

  (module Resistor_THT:R_Axial_DIN0207_L6.3mm_D2.5mm_P10.16mm_Horizontal placed (layer F.Cu) (tedit 5EF897D2) (tstamp 5EF7D916)
    (at 100.33 72.39 270)
    (descr "Resistor, Axial_DIN0207 series, Axial, Horizontal, pin pitch=10.16mm, 0.25W = 1/4W, length*diameter=6.3*2.5mm^2, http://cdn-reichelt.de/documents/datenblatt/B400/1_4W%23YAG.pdf")
    (tags "Resistor Axial_DIN0207 series Axial Horizontal pin pitch 10.16mm 0.25W = 1/4W length 6.3mm diameter 2.5mm")
    (path /5EF71394)
    (fp_text reference R5 (at 5.08 -2.37 90) (layer F.SilkS)
      (effects (font (size 1 1) (thickness 0.15)))
    )
    (fp_text value 10k (at 5.08 2.37 90) (layer F.Fab)
      (effects (font (size 1 1) (thickness 0.15)))
    )
    (fp_line (start 1.93 -1.25) (end 1.93 1.25) (layer F.Fab) (width 0.1))
    (fp_line (start 1.93 1.25) (end 8.23 1.25) (layer F.Fab) (width 0.1))
    (fp_line (start 8.23 1.25) (end 8.23 -1.25) (layer F.Fab) (width 0.1))
    (fp_line (start 8.23 -1.25) (end 1.93 -1.25) (layer F.Fab) (width 0.1))
    (fp_line (start 0 0) (end 1.93 0) (layer F.Fab) (width 0.1))
    (fp_line (start 10.16 0) (end 8.23 0) (layer F.Fab) (width 0.1))
    (fp_line (start 1.81 -1.37) (end 1.81 1.37) (layer F.SilkS) (width 0.12))
    (fp_line (start 1.81 1.37) (end 8.35 1.37) (layer F.SilkS) (width 0.12))
    (fp_line (start 8.35 1.37) (end 8.35 -1.37) (layer F.SilkS) (width 0.12))
    (fp_line (start 8.35 -1.37) (end 1.81 -1.37) (layer F.SilkS) (width 0.12))
    (fp_line (start 1.04 0) (end 1.81 0) (layer F.SilkS) (width 0.12))
    (fp_line (start 9.12 0) (end 8.35 0) (layer F.SilkS) (width 0.12))
    (fp_line (start -1.05 -1.5) (end -1.05 1.5) (layer F.CrtYd) (width 0.05))
    (fp_line (start -1.05 1.5) (end 11.21 1.5) (layer F.CrtYd) (width 0.05))
    (fp_line (start 11.21 1.5) (end 11.21 -1.5) (layer F.CrtYd) (width 0.05))
    (fp_line (start 11.21 -1.5) (end -1.05 -1.5) (layer F.CrtYd) (width 0.05))
    (fp_text user %R (at 5.08 0 90) (layer F.Fab)
      (effects (font (size 1 1) (thickness 0.15)))
    )
    (pad 2 thru_hole oval (at 10.16 0 270) (size 1.8 1.8) (drill 0.8) (layers *.Cu *.Mask)
      (net 34 "Net-(R5-Pad2)"))
    (pad 1 thru_hole circle (at 0 0 270) (size 1.8 1.8) (drill 0.8) (layers *.Cu *.Mask)
      (net 6 "Net-(Q1-Pad2)"))
    (model ${KISYS3DMOD}/Resistor_THT.3dshapes/R_Axial_DIN0207_L6.3mm_D2.5mm_P10.16mm_Horizontal.wrl
      (at (xyz 0 0 0))
      (scale (xyz 1 1 1))
      (rotate (xyz 0 0 0))
    )
  )

  (module Resistor_THT:R_Axial_DIN0207_L6.3mm_D2.5mm_P10.16mm_Horizontal placed (layer F.Cu) (tedit 5EF89746) (tstamp 5EF69BAD)
    (at 69.85 74.93 270)
    (descr "Resistor, Axial_DIN0207 series, Axial, Horizontal, pin pitch=10.16mm, 0.25W = 1/4W, length*diameter=6.3*2.5mm^2, http://cdn-reichelt.de/documents/datenblatt/B400/1_4W%23YAG.pdf")
    (tags "Resistor Axial_DIN0207 series Axial Horizontal pin pitch 10.16mm 0.25W = 1/4W length 6.3mm diameter 2.5mm")
    (path /5EF6F9F7)
    (fp_text reference R4 (at 5.08 -2.37 90) (layer F.SilkS)
      (effects (font (size 1 1) (thickness 0.15)))
    )
    (fp_text value 100k (at 5.08 2.37 90) (layer F.Fab)
      (effects (font (size 1 1) (thickness 0.15)))
    )
    (fp_line (start 1.93 -1.25) (end 1.93 1.25) (layer F.Fab) (width 0.1))
    (fp_line (start 1.93 1.25) (end 8.23 1.25) (layer F.Fab) (width 0.1))
    (fp_line (start 8.23 1.25) (end 8.23 -1.25) (layer F.Fab) (width 0.1))
    (fp_line (start 8.23 -1.25) (end 1.93 -1.25) (layer F.Fab) (width 0.1))
    (fp_line (start 0 0) (end 1.93 0) (layer F.Fab) (width 0.1))
    (fp_line (start 10.16 0) (end 8.23 0) (layer F.Fab) (width 0.1))
    (fp_line (start 1.81 -1.37) (end 1.81 1.37) (layer F.SilkS) (width 0.12))
    (fp_line (start 1.81 1.37) (end 8.35 1.37) (layer F.SilkS) (width 0.12))
    (fp_line (start 8.35 1.37) (end 8.35 -1.37) (layer F.SilkS) (width 0.12))
    (fp_line (start 8.35 -1.37) (end 1.81 -1.37) (layer F.SilkS) (width 0.12))
    (fp_line (start 1.04 0) (end 1.81 0) (layer F.SilkS) (width 0.12))
    (fp_line (start 9.12 0) (end 8.35 0) (layer F.SilkS) (width 0.12))
    (fp_line (start -1.05 -1.5) (end -1.05 1.5) (layer F.CrtYd) (width 0.05))
    (fp_line (start -1.05 1.5) (end 11.21 1.5) (layer F.CrtYd) (width 0.05))
    (fp_line (start 11.21 1.5) (end 11.21 -1.5) (layer F.CrtYd) (width 0.05))
    (fp_line (start 11.21 -1.5) (end -1.05 -1.5) (layer F.CrtYd) (width 0.05))
    (fp_text user %R (at 5.08 0 90) (layer F.Fab)
      (effects (font (size 1 1) (thickness 0.15)))
    )
    (pad 2 thru_hole oval (at 10.16 0 270) (size 1.8 1.8) (drill 0.8) (layers *.Cu *.Mask)
      (net 28 VoltageSensor))
    (pad 1 thru_hole circle (at 0 0 270) (size 1.8 1.8) (drill 0.8) (layers *.Cu *.Mask)
      (net 33 +3V8))
    (model ${KISYS3DMOD}/Resistor_THT.3dshapes/R_Axial_DIN0207_L6.3mm_D2.5mm_P10.16mm_Horizontal.wrl
      (at (xyz 0 0 0))
      (scale (xyz 1 1 1))
      (rotate (xyz 0 0 0))
    )
  )

  (module Resistor_THT:R_Axial_DIN0207_L6.3mm_D2.5mm_P10.16mm_Horizontal placed (layer F.Cu) (tedit 5EF8A71A) (tstamp 5EF69B96)
    (at 69.85 93.98)
    (descr "Resistor, Axial_DIN0207 series, Axial, Horizontal, pin pitch=10.16mm, 0.25W = 1/4W, length*diameter=6.3*2.5mm^2, http://cdn-reichelt.de/documents/datenblatt/B400/1_4W%23YAG.pdf")
    (tags "Resistor Axial_DIN0207 series Axial Horizontal pin pitch 10.16mm 0.25W = 1/4W length 6.3mm diameter 2.5mm")
    (path /5EF7006D)
    (fp_text reference R3 (at 5.08 -2.37) (layer F.SilkS)
      (effects (font (size 1 1) (thickness 0.15)))
    )
    (fp_text value 2k2 (at 5.08 2.37) (layer F.Fab)
      (effects (font (size 1 1) (thickness 0.15)))
    )
    (fp_line (start 1.93 -1.25) (end 1.93 1.25) (layer F.Fab) (width 0.1))
    (fp_line (start 1.93 1.25) (end 8.23 1.25) (layer F.Fab) (width 0.1))
    (fp_line (start 8.23 1.25) (end 8.23 -1.25) (layer F.Fab) (width 0.1))
    (fp_line (start 8.23 -1.25) (end 1.93 -1.25) (layer F.Fab) (width 0.1))
    (fp_line (start 0 0) (end 1.93 0) (layer F.Fab) (width 0.1))
    (fp_line (start 10.16 0) (end 8.23 0) (layer F.Fab) (width 0.1))
    (fp_line (start 1.81 -1.37) (end 1.81 1.37) (layer F.SilkS) (width 0.12))
    (fp_line (start 1.81 1.37) (end 8.35 1.37) (layer F.SilkS) (width 0.12))
    (fp_line (start 8.35 1.37) (end 8.35 -1.37) (layer F.SilkS) (width 0.12))
    (fp_line (start 8.35 -1.37) (end 1.81 -1.37) (layer F.SilkS) (width 0.12))
    (fp_line (start 1.04 0) (end 1.81 0) (layer F.SilkS) (width 0.12))
    (fp_line (start 9.12 0) (end 8.35 0) (layer F.SilkS) (width 0.12))
    (fp_line (start -1.05 -1.5) (end -1.05 1.5) (layer F.CrtYd) (width 0.05))
    (fp_line (start -1.05 1.5) (end 11.21 1.5) (layer F.CrtYd) (width 0.05))
    (fp_line (start 11.21 1.5) (end 11.21 -1.5) (layer F.CrtYd) (width 0.05))
    (fp_line (start 11.21 -1.5) (end -1.05 -1.5) (layer F.CrtYd) (width 0.05))
    (fp_text user %R (at 5.08 0) (layer F.Fab)
      (effects (font (size 1 1) (thickness 0.15)))
    )
    (pad 2 thru_hole oval (at 10.16 0) (size 1.8 1.8) (drill 1) (layers F.Cu B.SilkS F.Mask)
      (net 29 GND))
    (pad 1 thru_hole circle (at 0 0) (size 1.8 1.8) (drill 0.8) (layers *.Cu *.Mask)
      (net 31 Level))
    (model ${KISYS3DMOD}/Resistor_THT.3dshapes/R_Axial_DIN0207_L6.3mm_D2.5mm_P10.16mm_Horizontal.wrl
      (at (xyz 0 0 0))
      (scale (xyz 1 1 1))
      (rotate (xyz 0 0 0))
    )
  )

  (module Resistor_THT:R_Axial_DIN0207_L6.3mm_D2.5mm_P10.16mm_Horizontal placed (layer F.Cu) (tedit 5EF8A715) (tstamp 5EF69B7F)
    (at 69.85 88.9)
    (descr "Resistor, Axial_DIN0207 series, Axial, Horizontal, pin pitch=10.16mm, 0.25W = 1/4W, length*diameter=6.3*2.5mm^2, http://cdn-reichelt.de/documents/datenblatt/B400/1_4W%23YAG.pdf")
    (tags "Resistor Axial_DIN0207 series Axial Horizontal pin pitch 10.16mm 0.25W = 1/4W length 6.3mm diameter 2.5mm")
    (path /5EF719F4)
    (fp_text reference R2 (at 5.08 -2.37) (layer F.SilkS)
      (effects (font (size 1 1) (thickness 0.15)))
    )
    (fp_text value 100k (at 5.08 2.37) (layer F.Fab)
      (effects (font (size 1 1) (thickness 0.15)))
    )
    (fp_line (start 1.93 -1.25) (end 1.93 1.25) (layer F.Fab) (width 0.1))
    (fp_line (start 1.93 1.25) (end 8.23 1.25) (layer F.Fab) (width 0.1))
    (fp_line (start 8.23 1.25) (end 8.23 -1.25) (layer F.Fab) (width 0.1))
    (fp_line (start 8.23 -1.25) (end 1.93 -1.25) (layer F.Fab) (width 0.1))
    (fp_line (start 0 0) (end 1.93 0) (layer F.Fab) (width 0.1))
    (fp_line (start 10.16 0) (end 8.23 0) (layer F.Fab) (width 0.1))
    (fp_line (start 1.81 -1.37) (end 1.81 1.37) (layer F.SilkS) (width 0.12))
    (fp_line (start 1.81 1.37) (end 8.35 1.37) (layer F.SilkS) (width 0.12))
    (fp_line (start 8.35 1.37) (end 8.35 -1.37) (layer F.SilkS) (width 0.12))
    (fp_line (start 8.35 -1.37) (end 1.81 -1.37) (layer F.SilkS) (width 0.12))
    (fp_line (start 1.04 0) (end 1.81 0) (layer F.SilkS) (width 0.12))
    (fp_line (start 9.12 0) (end 8.35 0) (layer F.SilkS) (width 0.12))
    (fp_line (start -1.05 -1.5) (end -1.05 1.5) (layer F.CrtYd) (width 0.05))
    (fp_line (start -1.05 1.5) (end 11.21 1.5) (layer F.CrtYd) (width 0.05))
    (fp_line (start 11.21 1.5) (end 11.21 -1.5) (layer F.CrtYd) (width 0.05))
    (fp_line (start 11.21 -1.5) (end -1.05 -1.5) (layer F.CrtYd) (width 0.05))
    (fp_text user %R (at 5.08 0) (layer F.Fab)
      (effects (font (size 1 1) (thickness 0.15)))
    )
    (pad 2 thru_hole oval (at 10.16 0) (size 1.8 1.8) (drill 1) (layers F.Cu B.SilkS F.Mask)
      (net 29 GND))
    (pad 1 thru_hole circle (at 0 0) (size 1.8 1.8) (drill 0.8) (layers *.Cu *.Mask)
      (net 32 LDR))
    (model ${KISYS3DMOD}/Resistor_THT.3dshapes/R_Axial_DIN0207_L6.3mm_D2.5mm_P10.16mm_Horizontal.wrl
      (at (xyz 0 0 0))
      (scale (xyz 1 1 1))
      (rotate (xyz 0 0 0))
    )
  )

  (module Resistor_THT:R_Axial_DIN0207_L6.3mm_D2.5mm_P10.16mm_Horizontal placed (layer F.Cu) (tedit 5EF897E7) (tstamp 5EF7D958)
    (at 111.76 72.39 270)
    (descr "Resistor, Axial_DIN0207 series, Axial, Horizontal, pin pitch=10.16mm, 0.25W = 1/4W, length*diameter=6.3*2.5mm^2, http://cdn-reichelt.de/documents/datenblatt/B400/1_4W%23YAG.pdf")
    (tags "Resistor Axial_DIN0207 series Axial Horizontal pin pitch 10.16mm 0.25W = 1/4W length 6.3mm diameter 2.5mm")
    (path /5EF6893D)
    (fp_text reference R1 (at 5.08 -2.37 90) (layer F.SilkS)
      (effects (font (size 1 1) (thickness 0.15)))
    )
    (fp_text value 150 (at 5.08 2.37 90) (layer F.Fab)
      (effects (font (size 1 1) (thickness 0.15)))
    )
    (fp_line (start 1.93 -1.25) (end 1.93 1.25) (layer F.Fab) (width 0.1))
    (fp_line (start 1.93 1.25) (end 8.23 1.25) (layer F.Fab) (width 0.1))
    (fp_line (start 8.23 1.25) (end 8.23 -1.25) (layer F.Fab) (width 0.1))
    (fp_line (start 8.23 -1.25) (end 1.93 -1.25) (layer F.Fab) (width 0.1))
    (fp_line (start 0 0) (end 1.93 0) (layer F.Fab) (width 0.1))
    (fp_line (start 10.16 0) (end 8.23 0) (layer F.Fab) (width 0.1))
    (fp_line (start 1.81 -1.37) (end 1.81 1.37) (layer F.SilkS) (width 0.12))
    (fp_line (start 1.81 1.37) (end 8.35 1.37) (layer F.SilkS) (width 0.12))
    (fp_line (start 8.35 1.37) (end 8.35 -1.37) (layer F.SilkS) (width 0.12))
    (fp_line (start 8.35 -1.37) (end 1.81 -1.37) (layer F.SilkS) (width 0.12))
    (fp_line (start 1.04 0) (end 1.81 0) (layer F.SilkS) (width 0.12))
    (fp_line (start 9.12 0) (end 8.35 0) (layer F.SilkS) (width 0.12))
    (fp_line (start -1.05 -1.5) (end -1.05 1.5) (layer F.CrtYd) (width 0.05))
    (fp_line (start -1.05 1.5) (end 11.21 1.5) (layer F.CrtYd) (width 0.05))
    (fp_line (start 11.21 1.5) (end 11.21 -1.5) (layer F.CrtYd) (width 0.05))
    (fp_line (start 11.21 -1.5) (end -1.05 -1.5) (layer F.CrtYd) (width 0.05))
    (fp_text user %R (at 5.08 0 90) (layer F.Fab)
      (effects (font (size 1 1) (thickness 0.15)))
    )
    (pad 2 thru_hole oval (at 10.16 0 270) (size 1.8 1.8) (drill 0.8) (layers *.Cu *.Mask)
      (net 3 "Net-(J2-Pad2)"))
    (pad 1 thru_hole circle (at 0 0 270) (size 1.8 1.8) (drill 0.8) (layers *.Cu *.Mask)
      (net 7 "Net-(Q2-Pad1)"))
    (model ${KISYS3DMOD}/Resistor_THT.3dshapes/R_Axial_DIN0207_L6.3mm_D2.5mm_P10.16mm_Horizontal.wrl
      (at (xyz 0 0 0))
      (scale (xyz 1 1 1))
      (rotate (xyz 0 0 0))
    )
  )

  (module Connector_PinHeader_2.54mm:PinHeader_1x02_P2.54mm_Vertical placed (layer F.Cu) (tedit 5EF8A7B3) (tstamp 5EF6CDE1)
    (at 64.77 64.77)
    (descr "Through hole straight pin header, 1x02, 2.54mm pitch, single row")
    (tags "Through hole pin header THT 1x02 2.54mm single row")
    (path /5EF6796B)
    (fp_text reference J3 (at 0 -2.33) (layer F.SilkS)
      (effects (font (size 1 1) (thickness 0.15)))
    )
    (fp_text value Power (at 0 4.87) (layer F.Fab)
      (effects (font (size 1 1) (thickness 0.15)))
    )
    (fp_line (start -0.635 -1.27) (end 1.27 -1.27) (layer F.Fab) (width 0.1))
    (fp_line (start 1.27 -1.27) (end 1.27 3.81) (layer F.Fab) (width 0.1))
    (fp_line (start 1.27 3.81) (end -1.27 3.81) (layer F.Fab) (width 0.1))
    (fp_line (start -1.27 3.81) (end -1.27 -0.635) (layer F.Fab) (width 0.1))
    (fp_line (start -1.27 -0.635) (end -0.635 -1.27) (layer F.Fab) (width 0.1))
    (fp_line (start -1.33 3.87) (end 1.33 3.87) (layer F.SilkS) (width 0.12))
    (fp_line (start -1.33 1.27) (end -1.33 3.87) (layer F.SilkS) (width 0.12))
    (fp_line (start 1.33 1.27) (end 1.33 3.87) (layer F.SilkS) (width 0.12))
    (fp_line (start -1.33 1.27) (end 1.33 1.27) (layer F.SilkS) (width 0.12))
    (fp_line (start -1.33 0) (end -1.33 -1.33) (layer F.SilkS) (width 0.12))
    (fp_line (start -1.33 -1.33) (end 0 -1.33) (layer F.SilkS) (width 0.12))
    (fp_line (start -1.8 -1.8) (end -1.8 4.35) (layer F.CrtYd) (width 0.05))
    (fp_line (start -1.8 4.35) (end 1.8 4.35) (layer F.CrtYd) (width 0.05))
    (fp_line (start 1.8 4.35) (end 1.8 -1.8) (layer F.CrtYd) (width 0.05))
    (fp_line (start 1.8 -1.8) (end -1.8 -1.8) (layer F.CrtYd) (width 0.05))
    (fp_text user %R (at 0 1.27 90) (layer F.Fab)
      (effects (font (size 1 1) (thickness 0.15)))
    )
    (pad 2 thru_hole oval (at 0 2.54) (size 1.8 1.8) (drill 1) (layers F.Cu B.SilkS F.Mask)
      (net 29 GND))
    (pad 1 thru_hole rect (at 0 0) (size 1.8 1.8) (drill 1) (layers *.Cu *.Mask)
      (net 33 +3V8))
    (model ${KISYS3DMOD}/Connector_PinHeader_2.54mm.3dshapes/PinHeader_1x02_P2.54mm_Vertical.wrl
      (at (xyz 0 0 0))
      (scale (xyz 1 1 1))
      (rotate (xyz 0 0 0))
    )
  )

  (module Connector_PinHeader_2.54mm:PinHeader_1x04_P2.54mm_Vertical placed (layer F.Cu) (tedit 5EF89820) (tstamp 5EF69AF3)
    (at 119.38 90.17)
    (descr "Through hole straight pin header, 1x04, 2.54mm pitch, single row")
    (tags "Through hole pin header THT 1x04 2.54mm single row")
    (path /5EF70322)
    (fp_text reference J2 (at 0 -2.33) (layer F.SilkS)
      (effects (font (size 1 1) (thickness 0.15)))
    )
    (fp_text value LED's (at 0 9.95) (layer F.Fab)
      (effects (font (size 1 1) (thickness 0.15)))
    )
    (fp_line (start -0.635 -1.27) (end 1.27 -1.27) (layer F.Fab) (width 0.1))
    (fp_line (start 1.27 -1.27) (end 1.27 8.89) (layer F.Fab) (width 0.1))
    (fp_line (start 1.27 8.89) (end -1.27 8.89) (layer F.Fab) (width 0.1))
    (fp_line (start -1.27 8.89) (end -1.27 -0.635) (layer F.Fab) (width 0.1))
    (fp_line (start -1.27 -0.635) (end -0.635 -1.27) (layer F.Fab) (width 0.1))
    (fp_line (start -1.33 8.95) (end 1.33 8.95) (layer F.SilkS) (width 0.12))
    (fp_line (start -1.33 1.27) (end -1.33 8.95) (layer F.SilkS) (width 0.12))
    (fp_line (start 1.33 1.27) (end 1.33 8.95) (layer F.SilkS) (width 0.12))
    (fp_line (start -1.33 1.27) (end 1.33 1.27) (layer F.SilkS) (width 0.12))
    (fp_line (start -1.33 0) (end -1.33 -1.33) (layer F.SilkS) (width 0.12))
    (fp_line (start -1.33 -1.33) (end 0 -1.33) (layer F.SilkS) (width 0.12))
    (fp_line (start -1.8 -1.8) (end -1.8 9.4) (layer F.CrtYd) (width 0.05))
    (fp_line (start -1.8 9.4) (end 1.8 9.4) (layer F.CrtYd) (width 0.05))
    (fp_line (start 1.8 9.4) (end 1.8 -1.8) (layer F.CrtYd) (width 0.05))
    (fp_line (start 1.8 -1.8) (end -1.8 -1.8) (layer F.CrtYd) (width 0.05))
    (fp_text user %R (at 0 3.81 90) (layer F.Fab)
      (effects (font (size 1 1) (thickness 0.15)))
    )
    (pad 4 thru_hole oval (at 0 7.62) (size 1.8 1.8) (drill 1) (layers *.Cu *.Mask)
      (net 1 "Net-(J2-Pad4)"))
    (pad 3 thru_hole oval (at 0 5.08) (size 1.8 1.8) (drill 1) (layers *.Cu *.Mask)
      (net 2 "Net-(J2-Pad3)"))
    (pad 2 thru_hole oval (at 0 2.54) (size 1.8 1.8) (drill 1) (layers *.Cu *.Mask)
      (net 3 "Net-(J2-Pad2)"))
    (pad 1 thru_hole rect (at 0 0) (size 1.8 1.8) (drill 1) (layers *.Cu *.Mask)
      (net 4 "Net-(J2-Pad1)"))
    (model ${KISYS3DMOD}/Connector_PinHeader_2.54mm.3dshapes/PinHeader_1x04_P2.54mm_Vertical.wrl
      (at (xyz 0 0 0))
      (scale (xyz 1 1 1))
      (rotate (xyz 0 0 0))
    )
  )

  (module Diode_THT:D_DO-35_SOD27_P7.62mm_Horizontal placed (layer F.Cu) (tedit 5EF8A7E4) (tstamp 5EF69AC3)
    (at 74.93 74.93 270)
    (descr "Diode, DO-35_SOD27 series, Axial, Horizontal, pin pitch=7.62mm, , length*diameter=4*2mm^2, , http://www.diodes.com/_files/packages/DO-35.pdf")
    (tags "Diode DO-35_SOD27 series Axial Horizontal pin pitch 7.62mm  length 4mm diameter 2mm")
    (path /5EF4FFA4)
    (fp_text reference D1 (at 3.81 -2.12 90) (layer F.SilkS)
      (effects (font (size 1 1) (thickness 0.15)))
    )
    (fp_text value 1N4148 (at 3.81 2.12 90) (layer F.Fab)
      (effects (font (size 1 1) (thickness 0.15)))
    )
    (fp_line (start 1.81 -1) (end 1.81 1) (layer F.Fab) (width 0.1))
    (fp_line (start 1.81 1) (end 5.81 1) (layer F.Fab) (width 0.1))
    (fp_line (start 5.81 1) (end 5.81 -1) (layer F.Fab) (width 0.1))
    (fp_line (start 5.81 -1) (end 1.81 -1) (layer F.Fab) (width 0.1))
    (fp_line (start 0 0) (end 1.81 0) (layer F.Fab) (width 0.1))
    (fp_line (start 7.62 0) (end 5.81 0) (layer F.Fab) (width 0.1))
    (fp_line (start 2.41 -1) (end 2.41 1) (layer F.Fab) (width 0.1))
    (fp_line (start 2.51 -1) (end 2.51 1) (layer F.Fab) (width 0.1))
    (fp_line (start 2.31 -1) (end 2.31 1) (layer F.Fab) (width 0.1))
    (fp_line (start 1.69 -1.12) (end 1.69 1.12) (layer F.SilkS) (width 0.12))
    (fp_line (start 1.69 1.12) (end 5.93 1.12) (layer F.SilkS) (width 0.12))
    (fp_line (start 5.93 1.12) (end 5.93 -1.12) (layer F.SilkS) (width 0.12))
    (fp_line (start 5.93 -1.12) (end 1.69 -1.12) (layer F.SilkS) (width 0.12))
    (fp_line (start 1.04 0) (end 1.69 0) (layer F.SilkS) (width 0.12))
    (fp_line (start 6.58 0) (end 5.93 0) (layer F.SilkS) (width 0.12))
    (fp_line (start 2.41 -1.12) (end 2.41 1.12) (layer F.SilkS) (width 0.12))
    (fp_line (start 2.53 -1.12) (end 2.53 1.12) (layer F.SilkS) (width 0.12))
    (fp_line (start 2.29 -1.12) (end 2.29 1.12) (layer F.SilkS) (width 0.12))
    (fp_line (start -1.05 -1.25) (end -1.05 1.25) (layer F.CrtYd) (width 0.05))
    (fp_line (start -1.05 1.25) (end 8.67 1.25) (layer F.CrtYd) (width 0.05))
    (fp_line (start 8.67 1.25) (end 8.67 -1.25) (layer F.CrtYd) (width 0.05))
    (fp_line (start 8.67 -1.25) (end -1.05 -1.25) (layer F.CrtYd) (width 0.05))
    (fp_text user K (at 0 -1.8 90) (layer F.SilkS)
      (effects (font (size 1 1) (thickness 0.15)))
    )
    (fp_text user K (at 0 -1.8 90) (layer F.Fab)
      (effects (font (size 1 1) (thickness 0.15)))
    )
    (fp_text user %R (at 4.11 0 90) (layer F.Fab)
      (effects (font (size 0.8 0.8) (thickness 0.12)))
    )
    (pad 2 thru_hole oval (at 7.62 0 270) (size 1.8 1.8) (drill 0.8) (layers *.Cu *.Mask)
      (net 28 VoltageSensor))
    (pad 1 thru_hole rect (at 0 0 270) (size 1.8 1.8) (drill 0.8) (layers F.Cu F.Mask)
      (net 29 GND))
    (model ${KISYS3DMOD}/Diode_THT.3dshapes/D_DO-35_SOD27_P7.62mm_Horizontal.wrl
      (at (xyz 0 0 0))
      (scale (xyz 1 1 1))
      (rotate (xyz 0 0 0))
    )
  )

  (gr_text "HOS CANDLE" (at 104.14 102.87) (layer B.Cu)
    (effects (font (size 2 2) (thickness 0.5)) (justify mirror))
  )
  (dimension 63.5 (width 0.15) (layer Dwgs.User)
    (gr_text "63.500 mm" (at 91.44 111.789999) (layer Dwgs.User)
      (effects (font (size 1 1) (thickness 0.15)))
    )
    (feature1 (pts (xy 123.19 107.95) (xy 123.19 111.07642)))
    (feature2 (pts (xy 59.69 107.95) (xy 59.69 111.07642)))
    (crossbar (pts (xy 59.69 110.489999) (xy 123.19 110.489999)))
    (arrow1a (pts (xy 123.19 110.489999) (xy 122.063496 111.07642)))
    (arrow1b (pts (xy 123.19 110.489999) (xy 122.063496 109.903578)))
    (arrow2a (pts (xy 59.69 110.489999) (xy 60.816504 111.07642)))
    (arrow2b (pts (xy 59.69 110.489999) (xy 60.816504 109.903578)))
  )
  (dimension 45.72 (width 0.15) (layer Dwgs.User)
    (gr_text "45.720 mm" (at 53.31 82.55 270) (layer Dwgs.User)
      (effects (font (size 1 1) (thickness 0.15)))
    )
    (feature1 (pts (xy 57.15 105.41) (xy 54.023579 105.41)))
    (feature2 (pts (xy 57.15 59.69) (xy 54.023579 59.69)))
    (crossbar (pts (xy 54.61 59.69) (xy 54.61 105.41)))
    (arrow1a (pts (xy 54.61 105.41) (xy 54.023579 104.283496)))
    (arrow1b (pts (xy 54.61 105.41) (xy 55.196421 104.283496)))
    (arrow2a (pts (xy 54.61 59.69) (xy 54.023579 60.816504)))
    (arrow2b (pts (xy 54.61 59.69) (xy 55.196421 60.816504)))
  )
  (gr_line (start 123.19 59.69) (end 123.19 105.41) (layer Edge.Cuts) (width 0.1))
  (gr_line (start 59.69 59.69) (end 123.19 59.69) (layer Edge.Cuts) (width 0.1) (tstamp 5EF81CF5))
  (gr_line (start 59.69 105.41) (end 59.69 59.69) (layer Edge.Cuts) (width 0.1))
  (gr_line (start 123.19 105.41) (end 59.69 105.41) (layer Edge.Cuts) (width 0.1))

  (segment (start 118.11 99.06) (end 119.38 97.79) (width 0.8) (layer B.Cu) (net 1))
  (segment (start 110.49 99.06) (end 118.11 99.06) (width 0.8) (layer B.Cu) (net 1))
  (segment (start 116.84 95.25) (end 119.38 95.25) (width 0.8) (layer B.Cu) (net 2))
  (segment (start 104.14 82.55) (end 116.84 95.25) (width 0.8) (layer B.Cu) (net 2))
  (segment (start 118.177919 92.71) (end 119.38 92.71) (width 0.8) (layer B.Cu) (net 3))
  (segment (start 111.76 86.292081) (end 118.177919 92.71) (width 0.8) (layer B.Cu) (net 3))
  (segment (start 111.76 82.55) (end 111.76 86.292081) (width 0.8) (layer B.Cu) (net 3))
  (segment (start 119.38 82.55) (end 119.38 90.17) (width 0.8) (layer B.Cu) (net 4))
  (segment (start 104.14 68.58) (end 102.87 67.31) (width 0.8) (layer B.Cu) (net 5))
  (segment (start 104.14 72.39) (end 104.14 68.58) (width 0.8) (layer B.Cu) (net 5))
  (segment (start 100.33 72.39) (end 99.06 71.12) (width 0.8) (layer B.Cu) (net 6))
  (segment (start 99.06 71.12) (end 99.06 66.04) (width 0.8) (layer B.Cu) (net 6))
  (segment (start 99.06 66.04) (end 100.33 64.77) (width 0.8) (layer B.Cu) (net 6))
  (segment (start 111.76 68.58) (end 110.49 67.31) (width 0.8) (layer B.Cu) (net 7))
  (segment (start 111.76 72.39) (end 111.76 68.58) (width 0.8) (layer B.Cu) (net 7))
  (segment (start 107.95 72.39) (end 106.68 71.12) (width 0.8) (layer B.Cu) (net 8))
  (segment (start 106.68 71.12) (end 106.68 66.04) (width 0.8) (layer B.Cu) (net 8))
  (segment (start 106.68 66.04) (end 107.95 64.77) (width 0.8) (layer B.Cu) (net 8))
  (segment (start 101.6 96.52) (end 100.33 97.79) (width 0.8) (layer B.Cu) (net 9))
  (segment (start 107.95 96.52) (end 101.6 96.52) (width 0.8) (layer B.Cu) (net 9))
  (segment (start 119.38 68.58) (end 118.11 67.31) (width 0.8) (layer B.Cu) (net 10))
  (segment (start 119.38 72.39) (end 119.38 68.58) (width 0.8) (layer B.Cu) (net 10))
  (segment (start 115.57 72.39) (end 114.3 71.12) (width 0.8) (layer B.Cu) (net 11))
  (segment (start 114.3 71.12) (end 114.3 66.04) (width 0.8) (layer B.Cu) (net 11))
  (segment (start 114.3 66.04) (end 115.57 64.77) (width 0.8) (layer B.Cu) (net 11))
  (segment (start 69.85 85.09) (end 72.39 82.55) (width 0.8) (layer B.Cu) (net 28))
  (segment (start 72.39 82.55) (end 74.93 82.55) (width 0.8) (layer B.Cu) (net 28))
  (segment (start 74.93 82.55) (end 77.47 82.55) (width 0.8) (layer B.Cu) (net 28))
  (segment (start 77.47 82.55) (end 82.55 87.63) (width 0.8) (layer B.Cu) (net 28))
  (segment (start 82.55 87.63) (end 82.55 90.17) (width 0.8) (layer B.Cu) (net 28))
  (segment (start 82.55 90.17) (end 83.82 91.44) (width 0.8) (layer B.Cu) (net 28))
  (segment (start 83.82 91.44) (end 85.09 91.44) (width 0.8) (layer B.Cu) (net 28))
  (via (at 80.01 74.93) (size 0.8) (drill 0.5) (layers F.Cu B.Cu) (net 29) (tstamp 5EF7D020))
  (via (at 80.01 81.28) (size 0.8) (drill 0.5) (layers F.Cu B.Cu) (net 29) (tstamp 5EF7D022))
  (via (at 73.66 71.12) (size 2) (drill 0.8) (layers F.Cu B.Cu) (net 30) (tstamp 5EF7CCF7))
  (via (at 67.31 71.12) (size 2) (drill 0.8) (layers F.Cu B.Cu) (net 30) (tstamp 5EF7CCFA))
  (segment (start 81.28 63.5) (end 73.66 71.12) (width 0.8) (layer B.Cu) (net 30))
  (segment (start 93.98 63.5) (end 81.28 63.5) (width 0.8) (layer B.Cu) (net 30))
  (segment (start 95.25 64.77) (end 93.98 63.5) (width 0.8) (layer B.Cu) (net 30))
  (segment (start 95.25 67.31) (end 95.25 64.77) (width 0.8) (layer B.Cu) (net 30))
  (segment (start 93.98 68.58) (end 95.25 67.31) (width 0.8) (layer B.Cu) (net 30))
  (segment (start 92.71 68.58) (end 93.98 68.58) (width 0.8) (layer B.Cu) (net 30))
  (segment (start 67.31 71.12) (end 62.23 76.2) (width 0.8) (layer B.Cu) (net 30))
  (segment (start 62.23 76.2) (end 62.23 96.52) (width 0.8) (layer B.Cu) (net 30))
  (segment (start 63.5 97.79) (end 64.77 97.79) (width 0.8) (layer B.Cu) (net 30))
  (segment (start 62.23 96.52) (end 63.5 97.79) (width 0.8) (layer B.Cu) (net 30))
  (via (at 73.66 99.06) (size 2) (drill 0.8) (layers F.Cu B.Cu) (net 31))
  (via (at 80.01 99.06) (size 2) (drill 0.8) (layers F.Cu B.Cu) (net 31))
  (segment (start 68.58 95.25) (end 69.85 93.98) (width 0.8) (layer B.Cu) (net 31))
  (segment (start 64.77 95.25) (end 68.58 95.25) (width 0.8) (layer B.Cu) (net 31))
  (segment (start 73.66 97.79) (end 73.66 99.06) (width 0.8) (layer B.Cu) (net 31))
  (segment (start 69.85 93.98) (end 73.66 97.79) (width 0.8) (layer B.Cu) (net 31))
  (segment (start 86.36 86.36) (end 85.09 86.36) (width 0.8) (layer B.Cu) (net 31))
  (segment (start 87.63 87.63) (end 86.36 86.36) (width 0.8) (layer B.Cu) (net 31))
  (segment (start 80.01 99.06) (end 82.55 101.6) (width 0.8) (layer B.Cu) (net 31))
  (segment (start 82.55 101.6) (end 86.36 101.6) (width 0.8) (layer B.Cu) (net 31))
  (segment (start 86.36 101.6) (end 87.63 100.33) (width 0.8) (layer B.Cu) (net 31))
  (segment (start 87.63 100.33) (end 87.63 87.63) (width 0.8) (layer B.Cu) (net 31))
  (segment (start 66.04 92.71) (end 69.85 88.9) (width 0.8) (layer B.Cu) (net 32))
  (segment (start 64.77 92.71) (end 66.04 92.71) (width 0.8) (layer B.Cu) (net 32))
  (segment (start 91.44 91.44) (end 92.71 91.44) (width 0.8) (layer B.Cu) (net 32))
  (segment (start 90.17 92.71) (end 91.44 91.44) (width 0.8) (layer B.Cu) (net 32))
  (segment (start 90.17 100.33) (end 90.17 92.71) (width 0.8) (layer B.Cu) (net 32))
  (segment (start 78.74 102.87) (end 87.63 102.87) (width 0.8) (layer B.Cu) (net 32))
  (segment (start 76.2 100.33) (end 78.74 102.87) (width 0.8) (layer B.Cu) (net 32))
  (segment (start 87.63 102.87) (end 90.17 100.33) (width 0.8) (layer B.Cu) (net 32))
  (segment (start 76.2 96.52) (end 76.2 100.33) (width 0.8) (layer B.Cu) (net 32))
  (segment (start 69.85 90.17) (end 76.2 96.52) (width 0.8) (layer B.Cu) (net 32))
  (segment (start 69.85 88.9) (end 69.85 90.17) (width 0.8) (layer B.Cu) (net 32))
  (segment (start 64.77 64.77) (end 66.04 63.5) (width 0.8) (layer B.Cu) (net 33))
  (segment (start 69.85 74.93) (end 69.85 63.5) (width 0.8) (layer B.Cu) (net 33))
  (segment (start 69.85 63.5) (end 73.66 63.5) (width 0.8) (layer B.Cu) (net 33))
  (segment (start 66.04 63.5) (end 69.85 63.5) (width 0.8) (layer B.Cu) (net 33))
  (segment (start 85.09 78.74) (end 86.36 78.74) (width 0.8) (layer B.Cu) (net 33))
  (segment (start 91.44 83.82) (end 92.71 83.82) (width 0.8) (layer B.Cu) (net 33))
  (segment (start 86.36 78.74) (end 91.44 83.82) (width 0.8) (layer B.Cu) (net 33))
  (segment (start 64.77 90.17) (end 64.77 83.82) (width 0.8) (layer B.Cu) (net 33))
  (segment (start 69.85 78.74) (end 69.85 74.93) (width 0.8) (layer B.Cu) (net 33))
  (segment (start 64.77 83.82) (end 69.85 78.74) (width 0.8) (layer B.Cu) (net 33))
  (segment (start 85.09 78.74) (end 69.85 78.74) (width 0.8) (layer B.Cu) (net 33))
  (segment (start 73.66 63.5) (end 76.2 63.5) (width 0.8) (layer B.Cu) (net 33))
  (segment (start 76.2 63.5) (end 78.74 60.96) (width 0.8) (layer B.Cu) (net 33))
  (segment (start 116.84 60.96) (end 118.11 62.23) (width 0.8) (layer B.Cu) (net 33))
  (segment (start 110.49 62.23) (end 110.49 60.96) (width 0.8) (layer B.Cu) (net 33))
  (segment (start 102.87 62.23) (end 102.87 60.96) (width 0.8) (layer B.Cu) (net 33))
  (segment (start 102.87 60.96) (end 116.84 60.96) (width 0.8) (layer B.Cu) (net 33))
  (segment (start 78.74 60.96) (end 102.87 60.96) (width 0.8) (layer B.Cu) (net 33))
  (segment (start 100.33 82.55) (end 104.14 86.36) (width 0.8) (layer B.Cu) (net 34))
  (segment (start 104.14 86.36) (end 104.14 88.9) (width 0.8) (layer B.Cu) (net 34))
  (segment (start 104.14 88.9) (end 102.87 90.17) (width 0.8) (layer B.Cu) (net 34))
  (segment (start 102.87 90.17) (end 97.79 90.17) (width 0.8) (layer B.Cu) (net 34))
  (segment (start 97.79 90.17) (end 96.52 88.9) (width 0.8) (layer B.Cu) (net 34))
  (segment (start 96.52 88.9) (end 92.71 88.9) (width 0.8) (layer B.Cu) (net 34))
  (segment (start 92.71 73.66) (end 93.98 73.66) (width 0.8) (layer B.Cu) (net 35))
  (segment (start 93.98 73.66) (end 100.33 80.01) (width 0.8) (layer B.Cu) (net 35))
  (segment (start 100.33 80.01) (end 106.68 80.01) (width 0.8) (layer B.Cu) (net 35))
  (segment (start 107.95 81.28) (end 107.95 82.55) (width 0.8) (layer B.Cu) (net 35))
  (segment (start 106.68 80.01) (end 107.95 81.28) (width 0.8) (layer B.Cu) (net 35))
  (segment (start 92.71 71.12) (end 93.98 71.12) (width 0.8) (layer B.Cu) (net 36))
  (segment (start 93.98 71.12) (end 100.33 77.47) (width 0.8) (layer B.Cu) (net 36))
  (segment (start 110.49 77.47) (end 115.57 82.55) (width 0.8) (layer B.Cu) (net 36))
  (segment (start 100.33 77.47) (end 110.49 77.47) (width 0.8) (layer B.Cu) (net 36))
  (segment (start 100.33 87.63) (end 97.79 87.63) (width 0.8) (layer B.Cu) (net 37))
  (segment (start 96.52 86.36) (end 92.71 86.36) (width 0.8) (layer B.Cu) (net 37))
  (segment (start 97.79 87.63) (end 96.52 86.36) (width 0.8) (layer B.Cu) (net 37))

)
